<?xml version="1.0" encoding="utf-8"?>
<!DOCTYPE eagle SYSTEM "eagle.dtd">
<eagle version="8.2.1">
<drawing>
<settings>
<setting alwaysvectorfont="no"/>
<setting verticaltext="up"/>
</settings>
<grid distance="11.8110236" unitdist="mil" unit="mil" style="lines" multiple="1" display="no" altdistance="5" altunitdist="mil" altunit="mil"/>
<layers>
<layer number="1" name="Top" color="4" fill="1" visible="no" active="yes"/>
<layer number="16" name="Bottom" color="1" fill="1" visible="yes" active="yes"/>
<layer number="17" name="Pads" color="2" fill="1" visible="yes" active="yes"/>
<layer number="18" name="Vias" color="2" fill="1" visible="yes" active="yes"/>
<layer number="19" name="Unrouted" color="6" fill="1" visible="yes" active="yes"/>
<layer number="20" name="Dimension" color="15" fill="1" visible="yes" active="yes"/>
<layer number="21" name="tPlace" color="7" fill="1" visible="no" active="yes"/>
<layer number="22" name="bPlace" color="7" fill="1" visible="yes" active="yes"/>
<layer number="23" name="tOrigins" color="15" fill="1" visible="no" active="yes"/>
<layer number="24" name="bOrigins" color="15" fill="1" visible="yes" active="yes"/>
<layer number="25" name="tNames" color="7" fill="1" visible="no" active="yes"/>
<layer number="26" name="bNames" color="7" fill="1" visible="yes" active="yes"/>
<layer number="27" name="tValues" color="7" fill="1" visible="no" active="yes"/>
<layer number="28" name="bValues" color="7" fill="1" visible="no" active="yes"/>
<layer number="29" name="tStop" color="7" fill="3" visible="no" active="yes"/>
<layer number="30" name="bStop" color="7" fill="6" visible="no" active="yes"/>
<layer number="31" name="tCream" color="7" fill="4" visible="no" active="yes"/>
<layer number="32" name="bCream" color="7" fill="5" visible="no" active="yes"/>
<layer number="33" name="tFinish" color="6" fill="3" visible="no" active="yes"/>
<layer number="34" name="bFinish" color="6" fill="6" visible="no" active="yes"/>
<layer number="35" name="tGlue" color="7" fill="4" visible="no" active="yes"/>
<layer number="36" name="bGlue" color="7" fill="5" visible="no" active="yes"/>
<layer number="37" name="tTest" color="7" fill="1" visible="no" active="yes"/>
<layer number="38" name="bTest" color="7" fill="1" visible="no" active="yes"/>
<layer number="39" name="tKeepout" color="4" fill="11" visible="no" active="yes"/>
<layer number="40" name="bKeepout" color="1" fill="11" visible="yes" active="yes"/>
<layer number="41" name="tRestrict" color="4" fill="10" visible="no" active="yes"/>
<layer number="42" name="bRestrict" color="1" fill="10" visible="no" active="yes"/>
<layer number="43" name="vRestrict" color="2" fill="10" visible="no" active="yes"/>
<layer number="44" name="Drills" color="7" fill="1" visible="no" active="yes"/>
<layer number="45" name="Holes" color="7" fill="1" visible="no" active="yes"/>
<layer number="46" name="Milling" color="3" fill="1" visible="no" active="yes"/>
<layer number="47" name="Measures" color="7" fill="1" visible="no" active="yes"/>
<layer number="48" name="Document" color="7" fill="1" visible="no" active="yes"/>
<layer number="49" name="Reference" color="7" fill="1" visible="no" active="yes"/>
<layer number="50" name="dxf" color="7" fill="1" visible="no" active="no"/>
<layer number="51" name="tDocu" color="7" fill="1" visible="no" active="yes"/>
<layer number="52" name="bDocu" color="7" fill="1" visible="yes" active="yes"/>
<layer number="53" name="tGND_GNDA" color="7" fill="9" visible="no" active="no"/>
<layer number="54" name="bGND_GNDA" color="1" fill="9" visible="no" active="no"/>
<layer number="56" name="wert" color="7" fill="1" visible="no" active="no"/>
<layer number="57" name="tCAD" color="7" fill="1" visible="no" active="no"/>
<layer number="90" name="Modules" color="5" fill="1" visible="no" active="no"/>
<layer number="91" name="Nets" color="2" fill="1" visible="no" active="no"/>
<layer number="92" name="Busses" color="1" fill="1" visible="no" active="no"/>
<layer number="93" name="Pins" color="2" fill="1" visible="no" active="no"/>
<layer number="94" name="Symbols" color="4" fill="1" visible="no" active="no"/>
<layer number="95" name="Names" color="7" fill="1" visible="no" active="no"/>
<layer number="96" name="Values" color="7" fill="1" visible="no" active="no"/>
<layer number="97" name="Info" color="7" fill="1" visible="no" active="no"/>
<layer number="98" name="Guide" color="6" fill="1" visible="no" active="no"/>
<layer number="100" name="Muster" color="7" fill="1" visible="no" active="no"/>
<layer number="101" name="Patch_Top" color="12" fill="4" visible="no" active="yes"/>
<layer number="102" name="Vscore" color="7" fill="1" visible="no" active="yes"/>
<layer number="103" name="tMap" color="7" fill="1" visible="no" active="yes"/>
<layer number="104" name="Name" color="7" fill="1" visible="no" active="yes"/>
<layer number="105" name="tPlate" color="7" fill="1" visible="no" active="yes"/>
<layer number="106" name="bPlate" color="7" fill="1" visible="no" active="yes"/>
<layer number="107" name="Crop" color="7" fill="1" visible="no" active="yes"/>
<layer number="108" name="fp8" color="7" fill="1" visible="no" active="yes"/>
<layer number="109" name="fp9" color="7" fill="1" visible="no" active="yes"/>
<layer number="110" name="fp0" color="7" fill="1" visible="no" active="yes"/>
<layer number="111" name="LPC17xx" color="7" fill="1" visible="no" active="yes"/>
<layer number="112" name="tSilk" color="7" fill="1" visible="no" active="yes"/>
<layer number="116" name="Patch_BOT" color="9" fill="4" visible="no" active="yes"/>
<layer number="121" name="_tsilk" color="7" fill="1" visible="no" active="yes"/>
<layer number="122" name="_bsilk" color="7" fill="1" visible="no" active="yes"/>
<layer number="123" name="tTestmark" color="7" fill="1" visible="no" active="yes"/>
<layer number="124" name="bTestmark" color="7" fill="1" visible="no" active="yes"/>
<layer number="125" name="_tNames" color="7" fill="1" visible="no" active="yes"/>
<layer number="126" name="_bNames" color="7" fill="1" visible="no" active="yes"/>
<layer number="127" name="_tValues" color="7" fill="1" visible="no" active="yes"/>
<layer number="128" name="_bValues" color="7" fill="1" visible="no" active="yes"/>
<layer number="131" name="tAdjust" color="7" fill="1" visible="no" active="yes"/>
<layer number="132" name="bAdjust" color="7" fill="1" visible="no" active="yes"/>
<layer number="144" name="Drill_legend" color="7" fill="1" visible="no" active="yes"/>
<layer number="150" name="Notes" color="7" fill="1" visible="no" active="yes"/>
<layer number="151" name="HeatSink" color="7" fill="1" visible="no" active="yes"/>
<layer number="152" name="_bDocu" color="7" fill="1" visible="no" active="yes"/>
<layer number="153" name="FabDoc1" color="6" fill="1" visible="no" active="no"/>
<layer number="154" name="FabDoc2" color="2" fill="1" visible="no" active="no"/>
<layer number="155" name="FabDoc3" color="7" fill="15" visible="no" active="no"/>
<layer number="199" name="Contour" color="7" fill="1" visible="no" active="yes"/>
<layer number="200" name="200bmp" color="1" fill="10" visible="no" active="no"/>
<layer number="201" name="201bmp" color="2" fill="1" visible="no" active="no"/>
<layer number="202" name="202bmp" color="3" fill="1" visible="no" active="no"/>
<layer number="203" name="203bmp" color="4" fill="10" visible="no" active="yes"/>
<layer number="204" name="204bmp" color="5" fill="10" visible="no" active="yes"/>
<layer number="205" name="205bmp" color="6" fill="10" visible="no" active="yes"/>
<layer number="206" name="206bmp" color="7" fill="10" visible="no" active="yes"/>
<layer number="207" name="207bmp" color="8" fill="10" visible="no" active="yes"/>
<layer number="208" name="208bmp" color="9" fill="10" visible="no" active="yes"/>
<layer number="209" name="209bmp" color="7" fill="1" visible="no" active="yes"/>
<layer number="210" name="210bmp" color="7" fill="1" visible="no" active="yes"/>
<layer number="211" name="211bmp" color="7" fill="1" visible="no" active="yes"/>
<layer number="212" name="212bmp" color="7" fill="1" visible="no" active="yes"/>
<layer number="213" name="213bmp" color="7" fill="1" visible="no" active="yes"/>
<layer number="214" name="214bmp" color="7" fill="1" visible="no" active="yes"/>
<layer number="215" name="215bmp" color="7" fill="1" visible="no" active="yes"/>
<layer number="216" name="216bmp" color="7" fill="1" visible="no" active="yes"/>
<layer number="217" name="217bmp" color="18" fill="1" visible="no" active="no"/>
<layer number="218" name="218bmp" color="19" fill="1" visible="no" active="no"/>
<layer number="219" name="219bmp" color="20" fill="1" visible="no" active="no"/>
<layer number="220" name="220bmp" color="21" fill="1" visible="no" active="no"/>
<layer number="221" name="221bmp" color="22" fill="1" visible="no" active="no"/>
<layer number="222" name="222bmp" color="23" fill="1" visible="no" active="no"/>
<layer number="223" name="223bmp" color="24" fill="1" visible="no" active="no"/>
<layer number="224" name="224bmp" color="25" fill="1" visible="no" active="no"/>
<layer number="248" name="Housing" color="7" fill="1" visible="no" active="yes"/>
<layer number="249" name="Edge" color="7" fill="1" visible="no" active="yes"/>
<layer number="250" name="Descript" color="3" fill="1" visible="no" active="no"/>
<layer number="251" name="SMDround" color="12" fill="11" visible="no" active="no"/>
<layer number="254" name="cooling" color="7" fill="1" visible="no" active="yes"/>
</layers>
<board>
<plain>
<wire x1="0" y1="0" x2="19.492" y2="0" width="0" layer="20"/>
<wire x1="19.492" y1="0" x2="19.492" y2="24.411" width="0" layer="20"/>
<wire x1="19.492" y1="24.411" x2="0" y2="24.411" width="0" layer="20"/>
<wire x1="0" y1="24.411" x2="0" y2="0" width="0" layer="20"/>
<wire x1="1.316" y1="18.15" x2="6.05" y2="18.15" width="0.0762" layer="25"/>
<wire x1="6.05" y1="18.15" x2="6.858" y2="18.542" width="0.0762" layer="25"/>
<wire x1="6.858" y1="18.542" x2="6.858" y2="19.177" width="0.0762" layer="25"/>
<wire x1="6.858" y1="19.177" x2="10.414" y2="19.177" width="0.0762" layer="25"/>
<wire x1="6.858" y1="18.542" x2="6.858" y2="16.383" width="0.0762" layer="25"/>
<wire x1="6.858" y1="16.383" x2="10.414" y2="16.383" width="0.0762" layer="25"/>
<wire x1="10.414" y1="16.383" x2="10.414" y2="19.177" width="0.0762" layer="25"/>
<text x="16.257" y="2.388" size="0.8128" layer="26" font="vector" rot="MR0">M.M. 2017</text>
</plain>
<libraries>
<library name="SparkFun">
<description>&lt;h3&gt;SparkFun Electronics' preferred foot prints&lt;/h3&gt;
We've spent an enormous amount of time creating and checking these footprints and parts. If you enjoy using this library, please buy one of our products at www.sparkfun.com.
&lt;br&gt;&lt;br&gt;
&lt;b&gt;Licensing:&lt;/b&gt; CC v3.0 Share-Alike You are welcome to use this library for commercial purposes. For attribution, we ask that when you begin to sell your device using our footprint, you email us with a link to the product being sold. We want bragging rights that we helped (in a very small part) to create your 8th world wonder. We would like the opportunity to feature your device on our homepage.</description>
<packages>
<package name="SOT23-3">
<wire x1="1.4224" y1="0.6604" x2="1.4224" y2="-0.6604" width="0.1524" layer="51"/>
<wire x1="1.4224" y1="-0.6604" x2="-1.4224" y2="-0.6604" width="0.1524" layer="51"/>
<wire x1="-1.4224" y1="-0.6604" x2="-1.4224" y2="0.6604" width="0.1524" layer="51"/>
<wire x1="-1.4224" y1="0.6604" x2="1.4224" y2="0.6604" width="0.1524" layer="51"/>
<wire x1="-0.8" y1="0.7" x2="-1.4" y2="0.7" width="0.2032" layer="21"/>
<wire x1="-1.4" y1="0.7" x2="-1.4" y2="-0.1" width="0.2032" layer="21"/>
<wire x1="0.8" y1="0.7" x2="1.4" y2="0.7" width="0.2032" layer="21"/>
<wire x1="1.4" y1="0.7" x2="1.4" y2="-0.1" width="0.2032" layer="21"/>
<smd name="3" x="0" y="1.1" dx="0.8" dy="0.9" layer="1"/>
<smd name="2" x="0.95" y="-1" dx="0.8" dy="0.9" layer="1"/>
<smd name="1" x="-0.95" y="-1" dx="0.8" dy="0.9" layer="1"/>
<text x="-0.8255" y="1.778" size="0.4064" layer="25">&gt;NAME</text>
<text x="-1.016" y="-0.1905" size="0.4064" layer="27">&gt;VALUE</text>
</package>
</packages>
</library>
<library name="rcl">
<description>&lt;b&gt;Resistors, Capacitors, Inductors&lt;/b&gt;&lt;p&gt;
Based on the previous libraries:
&lt;ul&gt;
&lt;li&gt;r.lbr
&lt;li&gt;cap.lbr 
&lt;li&gt;cap-fe.lbr
&lt;li&gt;captant.lbr
&lt;li&gt;polcap.lbr
&lt;li&gt;ipc-smd.lbr
&lt;/ul&gt;
All SMD packages are defined according to the IPC specifications and  CECC&lt;p&gt;
&lt;author&gt;Created by librarian@cadsoft.de&lt;/author&gt;&lt;p&gt;
&lt;p&gt;
for Electrolyt Capacitors see also :&lt;p&gt;
www.bccomponents.com &lt;p&gt;
www.panasonic.com&lt;p&gt;
www.kemet.com&lt;p&gt;
http://www.secc.co.jp/pdf/os_e/2004/e_os_all.pdf &lt;b&gt;(SANYO)&lt;/b&gt;
&lt;p&gt;
for trimmer refence see : &lt;u&gt;www.electrospec-inc.com/cross_references/trimpotcrossref.asp&lt;/u&gt;&lt;p&gt;

&lt;table border=0 cellspacing=0 cellpadding=0 width="100%" cellpaddding=0&gt;
&lt;tr valign="top"&gt;

&lt;! &lt;td width="10"&gt;&amp;nbsp;&lt;/td&gt;
&lt;td width="90%"&gt;

&lt;b&gt;&lt;font color="#0000FF" size="4"&gt;TRIM-POT CROSS REFERENCE&lt;/font&gt;&lt;/b&gt;
&lt;P&gt;
&lt;TABLE BORDER=0 CELLSPACING=1 CELLPADDING=2&gt;
  &lt;TR&gt;
    &lt;TD COLSPAN=8&gt;
      &lt;FONT SIZE=3 FACE=ARIAL&gt;&lt;B&gt;RECTANGULAR MULTI-TURN&lt;/B&gt;&lt;/FONT&gt;
    &lt;/TD&gt;
  &lt;/TR&gt;
  &lt;TR&gt;
    &lt;TD ALIGN=CENTER&gt;
      &lt;B&gt;
      &lt;FONT SIZE=3 FACE=ARIAL color="#FF0000"&gt;BOURNS&lt;/FONT&gt;
      &lt;/B&gt;
    &lt;/TD&gt;
    &lt;TD ALIGN=CENTER&gt;
      &lt;B&gt;
      &lt;FONT SIZE=3 FACE=ARIAL color="#FF0000"&gt;BI&amp;nbsp;TECH&lt;/FONT&gt;
      &lt;/B&gt;
    &lt;/TD&gt;
    &lt;TD ALIGN=CENTER&gt;
      &lt;B&gt;
      &lt;FONT SIZE=3 FACE=ARIAL color="#FF0000"&gt;DALE-VISHAY&lt;/FONT&gt;
      &lt;/B&gt;
    &lt;/TD&gt;
    &lt;TD ALIGN=CENTER&gt;
      &lt;B&gt;
      &lt;FONT SIZE=3 FACE=ARIAL color="#FF0000"&gt;PHILIPS/MEPCO&lt;/FONT&gt;
      &lt;/B&gt;
    &lt;/TD&gt;
    &lt;TD ALIGN=CENTER&gt;
      &lt;B&gt;
      &lt;FONT SIZE=3 FACE=ARIAL color="#FF0000"&gt;MURATA&lt;/FONT&gt;
      &lt;/B&gt;
    &lt;/TD&gt;
    &lt;TD ALIGN=CENTER&gt;
      &lt;B&gt;
      &lt;FONT SIZE=3 FACE=ARIAL color="#FF0000"&gt;PANASONIC&lt;/FONT&gt;
      &lt;/B&gt;
    &lt;/TD&gt;
    &lt;TD ALIGN=CENTER&gt;
      &lt;B&gt;
      &lt;FONT SIZE=3 FACE=ARIAL color="#FF0000"&gt;SPECTROL&lt;/FONT&gt;
      &lt;/B&gt;
    &lt;/TD&gt;
    &lt;TD ALIGN=CENTER&gt;
      &lt;B&gt;
      &lt;FONT SIZE=3 FACE=ARIAL color="#FF0000"&gt;MILSPEC&lt;/FONT&gt;
      &lt;/B&gt;
    &lt;/TD&gt;&lt;TD&gt;&amp;nbsp;&lt;/TD&gt;
  &lt;/TR&gt;
  &lt;TR&gt;
    &lt;TD BGCOLOR="#cccccc" ALIGN=CENTER&gt;&lt;FONT FACE=ARIAL SIZE=3 &gt;
      3005P&lt;BR&gt;
      3006P&lt;BR&gt;
      3006W&lt;BR&gt;
      3006Y&lt;BR&gt;
      3009P&lt;BR&gt;
      3009W&lt;BR&gt;
      3009Y&lt;BR&gt;
      3057J&lt;BR&gt;
      3057L&lt;BR&gt;
      3057P&lt;BR&gt;
      3057Y&lt;BR&gt;
      3059J&lt;BR&gt;
      3059L&lt;BR&gt;
      3059P&lt;BR&gt;
      3059Y&lt;BR&gt;&lt;/FONT&gt;
    &lt;/TD&gt;
    &lt;TD BGCOLOR="#cccccc" ALIGN=CENTER&gt;&lt;FONT FACE=ARIAL SIZE=3&gt;
      -&lt;BR&gt;
      89P&lt;BR&gt;
      89W&lt;BR&gt;
      89X&lt;BR&gt;
      89PH&lt;BR&gt;
      76P&lt;BR&gt;
      89XH&lt;BR&gt;
      78SLT&lt;BR&gt;
      78L&amp;nbsp;ALT&lt;BR&gt;
      56P&amp;nbsp;ALT&lt;BR&gt;
      78P&amp;nbsp;ALT&lt;BR&gt;
      T8S&lt;BR&gt;
      78L&lt;BR&gt;
      56P&lt;BR&gt;
      78P&lt;BR&gt;&lt;/FONT&gt;
    &lt;/TD&gt;
    &lt;TD BGCOLOR="#cccccc" ALIGN=CENTER&gt;&lt;FONT FACE=ARIAL SIZE=3&gt;
      -&lt;BR&gt;
      T18/784&lt;BR&gt;
      783&lt;BR&gt;
      781&lt;BR&gt;
      -&lt;BR&gt;
      -&lt;BR&gt;
      -&lt;BR&gt;
      2199&lt;BR&gt;
      1697/1897&lt;BR&gt;
      1680/1880&lt;BR&gt;
      2187&lt;BR&gt;
      -&lt;BR&gt;
      -&lt;BR&gt;
      -&lt;BR&gt;
      -&lt;BR&gt;&lt;/FONT&gt;
    &lt;/TD&gt;
    &lt;TD BGCOLOR="#cccccc" ALIGN=CENTER&gt;&lt;FONT FACE=ARIAL SIZE=3&gt;
      -&lt;BR&gt;
      8035EKP/CT20/RJ-20P&lt;BR&gt;
      -&lt;BR&gt;
      RJ-20X&lt;BR&gt;
      -&lt;BR&gt;
      -&lt;BR&gt;
      -&lt;BR&gt;
      1211L&lt;BR&gt;
      8012EKQ&amp;nbsp;ALT&lt;BR&gt;
      8012EKR&amp;nbsp;ALT&lt;BR&gt;
      1211P&lt;BR&gt;
      8012EKJ&lt;BR&gt;
      8012EKL&lt;BR&gt;
      8012EKQ&lt;BR&gt;
      8012EKR&lt;BR&gt;&lt;/FONT&gt;
    &lt;/TD&gt;
    &lt;TD BGCOLOR="#cccccc" ALIGN=CENTER&gt;&lt;FONT FACE=ARIAL SIZE=3&gt;
      -&lt;BR&gt;
      2101P&lt;BR&gt;
      2101W&lt;BR&gt;
      2101Y&lt;BR&gt;
      -&lt;BR&gt;
      -&lt;BR&gt;
      -&lt;BR&gt;
      -&lt;BR&gt;
      -&lt;BR&gt;
      -&lt;BR&gt;
      -&lt;BR&gt;
      -&lt;BR&gt;
      2102L&lt;BR&gt;
      2102S&lt;BR&gt;
      2102Y&lt;BR&gt;&lt;/FONT&gt;
    &lt;/TD&gt;
    &lt;TD BGCOLOR="#cccccc" ALIGN=CENTER&gt;&lt;FONT FACE=ARIAL SIZE=3&gt;
      -&lt;BR&gt;
      EVMCOG&lt;BR&gt;
      -&lt;BR&gt;
      -&lt;BR&gt;
      -&lt;BR&gt;
      -&lt;BR&gt;
      -&lt;BR&gt;
      -&lt;BR&gt;
      -&lt;BR&gt;
      -&lt;BR&gt;
      -&lt;BR&gt;
      -&lt;BR&gt;
      -&lt;BR&gt;
      -&lt;BR&gt;
      -&lt;BR&gt;&lt;/FONT&gt;
    &lt;/TD&gt;
    &lt;TD BGCOLOR="#cccccc" ALIGN=CENTER&gt;&lt;FONT FACE=ARIAL SIZE=3&gt;
      -&lt;BR&gt;
      43P&lt;BR&gt;
      43W&lt;BR&gt;
      43Y&lt;BR&gt;
      -&lt;BR&gt;
      -&lt;BR&gt;
      -&lt;BR&gt;
      -&lt;BR&gt;
      40L&lt;BR&gt;
      40P&lt;BR&gt;
      40Y&lt;BR&gt;
      70Y-T602&lt;BR&gt;
      70L&lt;BR&gt;
      70P&lt;BR&gt;
      70Y&lt;BR&gt;&lt;/FONT&gt;
    &lt;/TD&gt;
    &lt;TD BGCOLOR="#cccccc" ALIGN=CENTER&gt;&lt;FONT FACE=ARIAL SIZE=3&gt;
      -&lt;BR&gt;
      -&lt;BR&gt;
      -&lt;BR&gt;
      -&lt;BR&gt;
      -&lt;BR&gt;
      -&lt;BR&gt;
      -&lt;BR&gt;
      -&lt;BR&gt;
      RT/RTR12&lt;BR&gt;
      RT/RTR12&lt;BR&gt;
      RT/RTR12&lt;BR&gt;
      -&lt;BR&gt;
      RJ/RJR12&lt;BR&gt;
      RJ/RJR12&lt;BR&gt;
      RJ/RJR12&lt;BR&gt;&lt;/FONT&gt;
    &lt;/TD&gt;
  &lt;/TR&gt;
  &lt;TR&gt;
    &lt;TD COLSPAN=8&gt;&amp;nbsp;
    &lt;/TD&gt;
  &lt;/TR&gt;
  &lt;TR&gt;
    &lt;TD COLSPAN=8&gt;
      &lt;FONT SIZE=4 FACE=ARIAL&gt;&lt;B&gt;SQUARE MULTI-TURN&lt;/B&gt;&lt;/FONT&gt;
    &lt;/TD&gt;
  &lt;/TR&gt;
  &lt;TR&gt;
   &lt;TD ALIGN=CENTER&gt;
      &lt;FONT SIZE=3 FACE=ARIAL&gt;&lt;B&gt;BOURN&lt;/B&gt;&lt;/FONT&gt;
    &lt;/TD&gt;
    &lt;TD ALIGN=CENTER&gt;
      &lt;FONT SIZE=3 FACE=ARIAL&gt;&lt;B&gt;BI&amp;nbsp;TECH&lt;/B&gt;&lt;/FONT&gt;
    &lt;/TD&gt;
    &lt;TD ALIGN=CENTER&gt;
      &lt;FONT SIZE=3 FACE=ARIAL&gt;&lt;B&gt;DALE-VISHAY&lt;/B&gt;&lt;/FONT&gt;
    &lt;/TD&gt;
    &lt;TD ALIGN=CENTER&gt;
      &lt;FONT SIZE=3 FACE=ARIAL&gt;&lt;B&gt;PHILIPS/MEPCO&lt;/B&gt;&lt;/FONT&gt;
    &lt;/TD&gt;
    &lt;TD ALIGN=CENTER&gt;
      &lt;FONT SIZE=3 FACE=ARIAL&gt;&lt;B&gt;MURATA&lt;/B&gt;&lt;/FONT&gt;
    &lt;/TD&gt;
    &lt;TD ALIGN=CENTER&gt;
      &lt;FONT SIZE=3 FACE=ARIAL&gt;&lt;B&gt;PANASONIC&lt;/B&gt;&lt;/FONT&gt;
    &lt;/TD&gt;
    &lt;TD ALIGN=CENTER&gt;
      &lt;FONT SIZE=3 FACE=ARIAL&gt;&lt;B&gt;SPECTROL&lt;/B&gt;&lt;/FONT&gt;
    &lt;/TD&gt;
    &lt;TD ALIGN=CENTER&gt;
      &lt;FONT SIZE=3 FACE=ARIAL&gt;&lt;B&gt;MILSPEC&lt;/B&gt;&lt;/FONT&gt;
    &lt;/TD&gt;
  &lt;/TR&gt;
  &lt;TR&gt;
    &lt;TD BGCOLOR="#cccccc" ALIGN=CENTER&gt;&lt;FONT FACE=ARIAL SIZE=3&gt;
      3250L&lt;BR&gt;
      3250P&lt;BR&gt;
      3250W&lt;BR&gt;
      3250X&lt;BR&gt;
      3252P&lt;BR&gt;
      3252W&lt;BR&gt;
      3252X&lt;BR&gt;
      3260P&lt;BR&gt;
      3260W&lt;BR&gt;
      3260X&lt;BR&gt;
      3262P&lt;BR&gt;
      3262W&lt;BR&gt;
      3262X&lt;BR&gt;
      3266P&lt;BR&gt;
      3266W&lt;BR&gt;
      3266X&lt;BR&gt;
      3290H&lt;BR&gt;
      3290P&lt;BR&gt;
      3290W&lt;BR&gt;
      3292P&lt;BR&gt;
      3292W&lt;BR&gt;
      3292X&lt;BR&gt;
      3296P&lt;BR&gt;
      3296W&lt;BR&gt;
      3296X&lt;BR&gt;
      3296Y&lt;BR&gt;
      3296Z&lt;BR&gt;
      3299P&lt;BR&gt;
      3299W&lt;BR&gt;
      3299X&lt;BR&gt;
      3299Y&lt;BR&gt;
      3299Z&lt;BR&gt;&lt;/FONT&gt;
    &lt;/TD&gt;
    &lt;TD BGCOLOR="#cccccc" ALIGN=CENTER&gt;&lt;FONT FACE=ARIAL SIZE=3&gt;
      -&lt;BR&gt;
      66P&amp;nbsp;ALT&lt;BR&gt;
      66W&amp;nbsp;ALT&lt;BR&gt;
      66X&amp;nbsp;ALT&lt;BR&gt;
      66P&amp;nbsp;ALT&lt;BR&gt;
      66W&amp;nbsp;ALT&lt;BR&gt;
      66X&amp;nbsp;ALT&lt;BR&gt;
      -&lt;BR&gt;
      64W&amp;nbsp;ALT&lt;BR&gt;
      -&lt;BR&gt;
      64P&amp;nbsp;ALT&lt;BR&gt;
      64W&amp;nbsp;ALT&lt;BR&gt;
      64X&amp;nbsp;ALT&lt;BR&gt;
      64P&lt;BR&gt;
      64W&lt;BR&gt;
      64X&lt;BR&gt;
      66X&amp;nbsp;ALT&lt;BR&gt;
      66P&amp;nbsp;ALT&lt;BR&gt;
      66W&amp;nbsp;ALT&lt;BR&gt;
      66P&lt;BR&gt;
      66W&lt;BR&gt;
      66X&lt;BR&gt;
      67P&lt;BR&gt;
      67W&lt;BR&gt;
      67X&lt;BR&gt;
      67Y&lt;BR&gt;
      67Z&lt;BR&gt;
      68P&lt;BR&gt;
      68W&lt;BR&gt;
      68X&lt;BR&gt;
      67Y&amp;nbsp;ALT&lt;BR&gt;
      67Z&amp;nbsp;ALT&lt;BR&gt;&lt;/FONT&gt;
    &lt;/TD&gt;
    &lt;TD BGCOLOR="#cccccc" ALIGN=CENTER&gt;&lt;FONT FACE=ARIAL SIZE=3&gt;
      5050&lt;BR&gt;
      5091&lt;BR&gt;
      5080&lt;BR&gt;
      5087&lt;BR&gt;
      -&lt;BR&gt;
      -&lt;BR&gt;
      -&lt;BR&gt;
      -&lt;BR&gt;
      -&lt;BR&gt;
      -&lt;BR&gt;
      -&lt;BR&gt;
      T63YB&lt;BR&gt;
      T63XB&lt;BR&gt;
      -&lt;BR&gt;
      -&lt;BR&gt;
      -&lt;BR&gt;
      5887&lt;BR&gt;
      5891&lt;BR&gt;
      5880&lt;BR&gt;
      -&lt;BR&gt;
      -&lt;BR&gt;
      -&lt;BR&gt;
      T93Z&lt;BR&gt;
      T93YA&lt;BR&gt;
      T93XA&lt;BR&gt;
      T93YB&lt;BR&gt;
      T93XB&lt;BR&gt;
      -&lt;BR&gt;
      -&lt;BR&gt;
      -&lt;BR&gt;
      -&lt;BR&gt;
      -&lt;BR&gt;&lt;/FONT&gt;
    &lt;/TD&gt;
    &lt;TD BGCOLOR="#cccccc" ALIGN=CENTER&gt;&lt;FONT FACE=ARIAL SIZE=3&gt;
      -&lt;BR&gt;
      -&lt;BR&gt;
      -&lt;BR&gt;
      -&lt;BR&gt;
      -&lt;BR&gt;
      -&lt;BR&gt;
      -&lt;BR&gt;
      -&lt;BR&gt;
      -&lt;BR&gt;
      -&lt;BR&gt;
      8026EKP&lt;BR&gt;
      8026EKW&lt;BR&gt;
      8026EKM&lt;BR&gt;
      8026EKP&lt;BR&gt;
      8026EKB&lt;BR&gt;
      8026EKM&lt;BR&gt;
      1309X&lt;BR&gt;
      1309P&lt;BR&gt;
      1309W&lt;BR&gt;
      8024EKP&lt;BR&gt;
      8024EKW&lt;BR&gt;
      8024EKN&lt;BR&gt;
      RJ-9P/CT9P&lt;BR&gt;
      RJ-9W&lt;BR&gt;
      RJ-9X&lt;BR&gt;
      -&lt;BR&gt;
      -&lt;BR&gt;
      -&lt;BR&gt;
      -&lt;BR&gt;
      -&lt;BR&gt;
      -&lt;BR&gt;
      -&lt;BR&gt;&lt;/FONT&gt;
    &lt;/TD&gt;
    &lt;TD BGCOLOR="#cccccc" ALIGN=CENTER&gt;&lt;FONT FACE=ARIAL SIZE=3&gt;
      -&lt;BR&gt;
      -&lt;BR&gt;
      -&lt;BR&gt;
      -&lt;BR&gt;
      -&lt;BR&gt;
      -&lt;BR&gt;
      -&lt;BR&gt;
      -&lt;BR&gt;
      -&lt;BR&gt;
      -&lt;BR&gt;
      3103P&lt;BR&gt;
      3103Y&lt;BR&gt;
      3103Z&lt;BR&gt;
      3103P&lt;BR&gt;
      3103Y&lt;BR&gt;
      3103Z&lt;BR&gt;
      -&lt;BR&gt;
      -&lt;BR&gt;
      -&lt;BR&gt;
      -&lt;BR&gt;
      -&lt;BR&gt;
      -&lt;BR&gt;
      3105P/3106P&lt;BR&gt;
      3105W/3106W&lt;BR&gt;
      3105X/3106X&lt;BR&gt;
      3105Y/3106Y&lt;BR&gt;
      3105Z/3105Z&lt;BR&gt;
      3102P&lt;BR&gt;
      3102W&lt;BR&gt;
      3102X&lt;BR&gt;
      3102Y&lt;BR&gt;
      3102Z&lt;BR&gt;&lt;/FONT&gt;
    &lt;/TD&gt;
    &lt;TD BGCOLOR="#cccccc" ALIGN=CENTER&gt;&lt;FONT FACE=ARIAL SIZE=3&gt;
      -&lt;BR&gt;
      -&lt;BR&gt;
      -&lt;BR&gt;
      -&lt;BR&gt;
      -&lt;BR&gt;
      -&lt;BR&gt;
      -&lt;BR&gt;
      -&lt;BR&gt;
      -&lt;BR&gt;
      -&lt;BR&gt;
      -&lt;BR&gt;
      -&lt;BR&gt;
      -&lt;BR&gt;
      -&lt;BR&gt;
      -&lt;BR&gt;
      -&lt;BR&gt;
      -&lt;BR&gt;
      -&lt;BR&gt;
      -&lt;BR&gt;
      -&lt;BR&gt;
      -&lt;BR&gt;
      -&lt;BR&gt;
      EVMCBG&lt;BR&gt;
      EVMCCG&lt;BR&gt;
      -&lt;BR&gt;
      -&lt;BR&gt;
      -&lt;BR&gt;
      -&lt;BR&gt;
      -&lt;BR&gt;
      -&lt;BR&gt;
      -&lt;BR&gt;
      -&lt;BR&gt;&lt;/FONT&gt;
    &lt;/TD&gt;
    &lt;TD BGCOLOR="#cccccc" ALIGN=CENTER&gt;&lt;FONT FACE=ARIAL SIZE=3&gt;
      55-1-X&lt;BR&gt;
      55-4-X&lt;BR&gt;
      55-3-X&lt;BR&gt;
      55-2-X&lt;BR&gt;
      -&lt;BR&gt;
      -&lt;BR&gt;
      -&lt;BR&gt;
      -&lt;BR&gt;
      -&lt;BR&gt;
      -&lt;BR&gt;
      -&lt;BR&gt;
      -&lt;BR&gt;
      -&lt;BR&gt;
      -&lt;BR&gt;
      -&lt;BR&gt;
      -&lt;BR&gt;
      50-2-X&lt;BR&gt;
      50-4-X&lt;BR&gt;
      50-3-X&lt;BR&gt;
      -&lt;BR&gt;
      -&lt;BR&gt;
      -&lt;BR&gt;
      64P&lt;BR&gt;
      64W&lt;BR&gt;
      64X&lt;BR&gt;
      64Y&lt;BR&gt;
      64Z&lt;BR&gt;
      -&lt;BR&gt;
      -&lt;BR&gt;
      -&lt;BR&gt;
      -&lt;BR&gt;
      -&lt;BR&gt;&lt;/FONT&gt;
    &lt;/TD&gt;
    &lt;TD BGCOLOR="#cccccc" ALIGN=CENTER&gt;&lt;FONT FACE=ARIAL SIZE=3&gt;
      RT/RTR22&lt;BR&gt;
      RT/RTR22&lt;BR&gt;
      RT/RTR22&lt;BR&gt;
      RT/RTR22&lt;BR&gt;
      RJ/RJR22&lt;BR&gt;
      RJ/RJR22&lt;BR&gt;
      RJ/RJR22&lt;BR&gt;
      RT/RTR26&lt;BR&gt;
      RT/RTR26&lt;BR&gt;
      RT/RTR26&lt;BR&gt;
      RJ/RJR26&lt;BR&gt;
      RJ/RJR26&lt;BR&gt;
      RJ/RJR26&lt;BR&gt;
      RJ/RJR26&lt;BR&gt;
      RJ/RJR26&lt;BR&gt;
      RJ/RJR26&lt;BR&gt;
      RT/RTR24&lt;BR&gt;
      RT/RTR24&lt;BR&gt;
      RT/RTR24&lt;BR&gt;
      RJ/RJR24&lt;BR&gt;
      RJ/RJR24&lt;BR&gt;
      RJ/RJR24&lt;BR&gt;
      RJ/RJR24&lt;BR&gt;
      RJ/RJR24&lt;BR&gt;
      RJ/RJR24&lt;BR&gt;
      -&lt;BR&gt;
      -&lt;BR&gt;
      -&lt;BR&gt;
      -&lt;BR&gt;
      -&lt;BR&gt;
      -&lt;BR&gt;
      -&lt;BR&gt;&lt;/FONT&gt;
    &lt;/TD&gt;
  &lt;/TR&gt;
  &lt;TR&gt;
    &lt;TD COLSPAN=8&gt;&amp;nbsp;
    &lt;/TD&gt;
  &lt;/TR&gt;
  &lt;TR&gt;
    &lt;TD COLSPAN=8&gt;
      &lt;FONT SIZE=4 FACE=ARIAL&gt;&lt;B&gt;SINGLE TURN&lt;/B&gt;&lt;/FONT&gt;
    &lt;/TD&gt;
  &lt;/TR&gt;
  &lt;TR&gt;
    &lt;TD ALIGN=CENTER&gt;
      &lt;FONT SIZE=3 FACE=ARIAL&gt;&lt;B&gt;BOURN&lt;/B&gt;&lt;/FONT&gt;
    &lt;/TD&gt;
    &lt;TD ALIGN=CENTER&gt;
      &lt;FONT SIZE=3 FACE=ARIAL&gt;&lt;B&gt;BI&amp;nbsp;TECH&lt;/B&gt;&lt;/FONT&gt;
    &lt;/TD&gt;
    &lt;TD ALIGN=CENTER&gt;
      &lt;FONT SIZE=3 FACE=ARIAL&gt;&lt;B&gt;DALE-VISHAY&lt;/B&gt;&lt;/FONT&gt;
    &lt;/TD&gt;
    &lt;TD ALIGN=CENTER&gt;
      &lt;FONT SIZE=3 FACE=ARIAL&gt;&lt;B&gt;PHILIPS/MEPCO&lt;/B&gt;&lt;/FONT&gt;
    &lt;/TD&gt;
    &lt;TD ALIGN=CENTER&gt;
      &lt;FONT SIZE=3 FACE=ARIAL&gt;&lt;B&gt;MURATA&lt;/B&gt;&lt;/FONT&gt;
    &lt;/TD&gt;
    &lt;TD ALIGN=CENTER&gt;
      &lt;FONT SIZE=3 FACE=ARIAL&gt;&lt;B&gt;PANASONIC&lt;/B&gt;&lt;/FONT&gt;
    &lt;/TD&gt;
    &lt;TD ALIGN=CENTER&gt;
      &lt;FONT SIZE=3 FACE=ARIAL&gt;&lt;B&gt;SPECTROL&lt;/B&gt;&lt;/FONT&gt;
    &lt;/TD&gt;
    &lt;TD ALIGN=CENTER&gt;
      &lt;FONT SIZE=3 FACE=ARIAL&gt;&lt;B&gt;MILSPEC&lt;/B&gt;&lt;/FONT&gt;
    &lt;/TD&gt;
  &lt;/TR&gt;
  &lt;TR&gt;
    &lt;TD BGCOLOR="#cccccc" ALIGN=CENTER&gt;&lt;FONT FACE=ARIAL SIZE=3&gt;
      3323P&lt;BR&gt;
      3323S&lt;BR&gt;
      3323W&lt;BR&gt;
      3329H&lt;BR&gt;
      3329P&lt;BR&gt;
      3329W&lt;BR&gt;
      3339H&lt;BR&gt;
      3339P&lt;BR&gt;
      3339W&lt;BR&gt;
      3352E&lt;BR&gt;
      3352H&lt;BR&gt;
      3352K&lt;BR&gt;
      3352P&lt;BR&gt;
      3352T&lt;BR&gt;
      3352V&lt;BR&gt;
      3352W&lt;BR&gt;
      3362H&lt;BR&gt;
      3362M&lt;BR&gt;
      3362P&lt;BR&gt;
      3362R&lt;BR&gt;
      3362S&lt;BR&gt;
      3362U&lt;BR&gt;
      3362W&lt;BR&gt;
      3362X&lt;BR&gt;
      3386B&lt;BR&gt;
      3386C&lt;BR&gt;
      3386F&lt;BR&gt;
      3386H&lt;BR&gt;
      3386K&lt;BR&gt;
      3386M&lt;BR&gt;
      3386P&lt;BR&gt;
      3386S&lt;BR&gt;
      3386W&lt;BR&gt;
      3386X&lt;BR&gt;&lt;/FONT&gt;
    &lt;/TD&gt;
    &lt;TD BGCOLOR="#cccccc" ALIGN=CENTER&gt;&lt;FONT FACE=ARIAL SIZE=3&gt;
      25P&lt;BR&gt;
      25S&lt;BR&gt;
      25RX&lt;BR&gt;
      82P&lt;BR&gt;
      82M&lt;BR&gt;
      82PA&lt;BR&gt;
      -&lt;BR&gt;
      -&lt;BR&gt;
      -&lt;BR&gt;
      91E&lt;BR&gt;
      91X&lt;BR&gt;
      91T&lt;BR&gt;
      91B&lt;BR&gt;
      91A&lt;BR&gt;
      91V&lt;BR&gt;
      91W&lt;BR&gt;
      25W&lt;BR&gt;
      25V&lt;BR&gt;
      25P&lt;BR&gt;
      -&lt;BR&gt;
      25S&lt;BR&gt;
      25U&lt;BR&gt;
      25RX&lt;BR&gt;
      25X&lt;BR&gt;
      72XW&lt;BR&gt;
      72XL&lt;BR&gt;
      72PM&lt;BR&gt;
      72RX&lt;BR&gt;
      -&lt;BR&gt;
      72PX&lt;BR&gt;
      72P&lt;BR&gt;
      72RXW&lt;BR&gt;
      72RXL&lt;BR&gt;
      72X&lt;BR&gt;&lt;/FONT&gt;
    &lt;/TD&gt;
    &lt;TD BGCOLOR="#cccccc" ALIGN=CENTER&gt;&lt;FONT FACE=ARIAL SIZE=3&gt;
      -&lt;BR&gt;
      -&lt;BR&gt;
      -&lt;BR&gt;
      T7YB&lt;BR&gt;
      T7YA&lt;BR&gt;
      -&lt;BR&gt;
      -&lt;BR&gt;
      -&lt;BR&gt;
      -&lt;BR&gt;
      -&lt;BR&gt;
      -&lt;BR&gt;
      -&lt;BR&gt;
      -&lt;BR&gt;
      -&lt;BR&gt;
      -&lt;BR&gt;
      -&lt;BR&gt;
      -&lt;BR&gt;
      TXD&lt;BR&gt;
      TYA&lt;BR&gt;
      TYP&lt;BR&gt;
      -&lt;BR&gt;
      TYD&lt;BR&gt;
      TX&lt;BR&gt;
      -&lt;BR&gt;
      150SX&lt;BR&gt;
      100SX&lt;BR&gt;
      102T&lt;BR&gt;
      101S&lt;BR&gt;
      190T&lt;BR&gt;
      150TX&lt;BR&gt;
      101&lt;BR&gt;
      -&lt;BR&gt;
      -&lt;BR&gt;
      101SX&lt;BR&gt;&lt;/FONT&gt;
    &lt;/TD&gt;
    &lt;TD BGCOLOR="#cccccc" ALIGN=CENTER&gt;&lt;FONT FACE=ARIAL SIZE=3&gt;
      ET6P&lt;BR&gt;
      ET6S&lt;BR&gt;
      ET6X&lt;BR&gt;
      RJ-6W/8014EMW&lt;BR&gt;
      RJ-6P/8014EMP&lt;BR&gt;
      RJ-6X/8014EMX&lt;BR&gt;
      TM7W&lt;BR&gt;
      TM7P&lt;BR&gt;
      TM7X&lt;BR&gt;
      -&lt;BR&gt;
      8017SMS&lt;BR&gt;
      -&lt;BR&gt;
      8017SMB&lt;BR&gt;
      8017SMA&lt;BR&gt;
      -&lt;BR&gt;
      -&lt;BR&gt;
      CT-6W&lt;BR&gt;
      CT-6H&lt;BR&gt;
      CT-6P&lt;BR&gt;
      CT-6R&lt;BR&gt;
      -&lt;BR&gt;
      CT-6V&lt;BR&gt;
      CT-6X&lt;BR&gt;
      -&lt;BR&gt;
      -&lt;BR&gt;
      8038EKV&lt;BR&gt;
      -&lt;BR&gt;
      8038EKX&lt;BR&gt;
      -&lt;BR&gt;
      -&lt;BR&gt;
      8038EKP&lt;BR&gt;
      8038EKZ&lt;BR&gt;
      8038EKW&lt;BR&gt;
      -&lt;BR&gt;&lt;/FONT&gt;
    &lt;/TD&gt;
    &lt;TD BGCOLOR="#cccccc" ALIGN=CENTER&gt;&lt;FONT FACE=ARIAL SIZE=3&gt;
      -&lt;BR&gt;
      -&lt;BR&gt;
      -&lt;BR&gt;
      3321H&lt;BR&gt;
      3321P&lt;BR&gt;
      3321N&lt;BR&gt;
      1102H&lt;BR&gt;
      1102P&lt;BR&gt;
      1102T&lt;BR&gt;
      RVA0911V304A&lt;BR&gt;
      -&lt;BR&gt;
      RVA0911H413A&lt;BR&gt;
      RVG0707V100A&lt;BR&gt;
      RVA0607V(H)306A&lt;BR&gt;
      RVA1214H213A&lt;BR&gt;
      -&lt;BR&gt;
      -&lt;BR&gt;
      -&lt;BR&gt;
      -&lt;BR&gt;
      -&lt;BR&gt;
      -&lt;BR&gt;
      -&lt;BR&gt;
      -&lt;BR&gt;
      -&lt;BR&gt;
      3104B&lt;BR&gt;
      3104C&lt;BR&gt;
      3104F&lt;BR&gt;
      3104H&lt;BR&gt;
      -&lt;BR&gt;
      3104M&lt;BR&gt;
      3104P&lt;BR&gt;
      3104S&lt;BR&gt;
      3104W&lt;BR&gt;
      3104X&lt;BR&gt;&lt;/FONT&gt;
    &lt;/TD&gt;
    &lt;TD BGCOLOR="#cccccc" ALIGN=CENTER&gt;&lt;FONT FACE=ARIAL SIZE=3&gt;
      EVMQ0G&lt;BR&gt;
      EVMQIG&lt;BR&gt;
      EVMQ3G&lt;BR&gt;
      EVMS0G&lt;BR&gt;
      EVMQ0G&lt;BR&gt;
      EVMG0G&lt;BR&gt;
      -&lt;BR&gt;
      -&lt;BR&gt;
      -&lt;BR&gt;
      EVMK4GA00B&lt;BR&gt;
      EVM30GA00B&lt;BR&gt;
      EVMK0GA00B&lt;BR&gt;
      EVM38GA00B&lt;BR&gt;
      EVMB6&lt;BR&gt;
      EVLQ0&lt;BR&gt;
      -&lt;BR&gt;
      EVMMSG&lt;BR&gt;
      EVMMBG&lt;BR&gt;
      EVMMAG&lt;BR&gt;
      -&lt;BR&gt;
      -&lt;BR&gt;
      EVMMCS&lt;BR&gt;
      -&lt;BR&gt;
      -&lt;BR&gt;
      -&lt;BR&gt;
      -&lt;BR&gt;
      -&lt;BR&gt;
      EVMM1&lt;BR&gt;
      -&lt;BR&gt;
      -&lt;BR&gt;
      EVMM0&lt;BR&gt;
      -&lt;BR&gt;
      -&lt;BR&gt;
      EVMM3&lt;BR&gt;&lt;/FONT&gt;
    &lt;/TD&gt;
    &lt;TD BGCOLOR="#cccccc" ALIGN=CENTER&gt;&lt;FONT FACE=ARIAL SIZE=3&gt;
      -&lt;BR&gt;
      -&lt;BR&gt;
      -&lt;BR&gt;
      62-3-1&lt;BR&gt;
      62-1-2&lt;BR&gt;
      -&lt;BR&gt;
      -&lt;BR&gt;
      -&lt;BR&gt;
      -&lt;BR&gt;
      -&lt;BR&gt;
      -&lt;BR&gt;
      -&lt;BR&gt;
      -&lt;BR&gt;
      -&lt;BR&gt;
      -&lt;BR&gt;
      -&lt;BR&gt;
      67R&lt;BR&gt;
      -&lt;BR&gt;
      67P&lt;BR&gt;
      -&lt;BR&gt;
      -&lt;BR&gt;
      -&lt;BR&gt;
      -&lt;BR&gt;
      67X&lt;BR&gt;
      63V&lt;BR&gt;
      63S&lt;BR&gt;
      63M&lt;BR&gt;
      -&lt;BR&gt;
      -&lt;BR&gt;
      63H&lt;BR&gt;
      63P&lt;BR&gt;
      -&lt;BR&gt;
      -&lt;BR&gt;
      63X&lt;BR&gt;&lt;/FONT&gt;
    &lt;/TD&gt;
    &lt;TD BGCOLOR="#cccccc" ALIGN=CENTER&gt;&lt;FONT FACE=ARIAL SIZE=3&gt;
      -&lt;BR&gt;
      -&lt;BR&gt;
      -&lt;BR&gt;
      RJ/RJR50&lt;BR&gt;
      RJ/RJR50&lt;BR&gt;
      RJ/RJR50&lt;BR&gt;
      -&lt;BR&gt;
      -&lt;BR&gt;
      -&lt;BR&gt;
      -&lt;BR&gt;
      -&lt;BR&gt;
      -&lt;BR&gt;
      -&lt;BR&gt;
      -&lt;BR&gt;
      -&lt;BR&gt;
      -&lt;BR&gt;
      -&lt;BR&gt;
      -&lt;BR&gt;
      -&lt;BR&gt;
      -&lt;BR&gt;
      -&lt;BR&gt;
      -&lt;BR&gt;
      -&lt;BR&gt;
      -&lt;BR&gt;
      -&lt;BR&gt;
      -&lt;BR&gt;
      -&lt;BR&gt;
      -&lt;BR&gt;
      -&lt;BR&gt;
      -&lt;BR&gt;
      -&lt;BR&gt;
      -&lt;BR&gt;
      -&lt;BR&gt;
      -&lt;BR&gt;&lt;/FONT&gt;
    &lt;/TD&gt;
  &lt;/TR&gt;
&lt;/TABLE&gt;
&lt;P&gt;&amp;nbsp;&lt;P&gt;
&lt;TABLE BORDER=0 CELLSPACING=1 CELLPADDING=3&gt;
  &lt;TR&gt;
    &lt;TD COLSPAN=7&gt;
      &lt;FONT color="#0000FF" SIZE=4 FACE=ARIAL&gt;&lt;B&gt;SMD TRIM-POT CROSS REFERENCE&lt;/B&gt;&lt;/FONT&gt;
      &lt;P&gt;
      &lt;FONT SIZE=4 FACE=ARIAL&gt;&lt;B&gt;MULTI-TURN&lt;/B&gt;&lt;/FONT&gt;
    &lt;/TD&gt;
  &lt;/TR&gt;
  &lt;TR&gt;
    &lt;TD&gt;
      &lt;FONT SIZE=3 FACE=ARIAL&gt;&lt;B&gt;BOURNS&lt;/B&gt;&lt;/FONT&gt;
    &lt;/TD&gt;
    &lt;TD&gt;
      &lt;FONT SIZE=3 FACE=ARIAL&gt;&lt;B&gt;BI&amp;nbsp;TECH&lt;/B&gt;&lt;/FONT&gt;
    &lt;/TD&gt;
    &lt;TD&gt;
      &lt;FONT SIZE=3 FACE=ARIAL&gt;&lt;B&gt;DALE-VISHAY&lt;/B&gt;&lt;/FONT&gt;
    &lt;/TD&gt;
    &lt;TD&gt;
      &lt;FONT SIZE=3 FACE=ARIAL&gt;&lt;B&gt;PHILIPS/MEPCO&lt;/B&gt;&lt;/FONT&gt;
    &lt;/TD&gt;
    &lt;TD&gt;
      &lt;FONT SIZE=3 FACE=ARIAL&gt;&lt;B&gt;PANASONIC&lt;/B&gt;&lt;/FONT&gt;
    &lt;/TD&gt;
    &lt;TD&gt;
      &lt;FONT SIZE=3 FACE=ARIAL&gt;&lt;B&gt;TOCOS&lt;/B&gt;&lt;/FONT&gt;
    &lt;/TD&gt;
    &lt;TD&gt;
      &lt;FONT SIZE=3 FACE=ARIAL&gt;&lt;B&gt;AUX/KYOCERA&lt;/B&gt;&lt;/FONT&gt;
    &lt;/TD&gt;
  &lt;/TR&gt;
  &lt;TR&gt;
    &lt;TD BGCOLOR="#cccccc" ALIGN=CENTER&gt;&lt;FONT FACE=ARIAL SIZE=3&gt;
      3224G&lt;BR&gt;
      3224J&lt;BR&gt;
      3224W&lt;BR&gt;
      3269P&lt;BR&gt;
      3269W&lt;BR&gt;
      3269X&lt;BR&gt;&lt;/FONT&gt;
    &lt;/TD&gt;
    &lt;TD BGCOLOR="#cccccc" ALIGN=CENTER&gt;&lt;FONT FACE=ARIAL SIZE=3&gt;
      44G&lt;BR&gt;
      44J&lt;BR&gt;
      44W&lt;BR&gt;
      84P&lt;BR&gt;
      84W&lt;BR&gt;
      84X&lt;BR&gt;&lt;/FONT&gt;
    &lt;/TD&gt;
    &lt;TD BGCOLOR="#cccccc" ALIGN=CENTER&gt;&lt;FONT FACE=ARIAL SIZE=3&gt;
      -&lt;BR&gt;
      -&lt;BR&gt;
      -&lt;BR&gt;
      ST63Z&lt;BR&gt;
      ST63Y&lt;BR&gt;
      -&lt;BR&gt;&lt;/FONT&gt;
    &lt;/TD&gt;
    &lt;TD BGCOLOR="#cccccc" ALIGN=CENTER&gt;&lt;FONT FACE=ARIAL SIZE=3&gt;
      -&lt;BR&gt;
      -&lt;BR&gt;
      -&lt;BR&gt;
      ST5P&lt;BR&gt;
      ST5W&lt;BR&gt;
      ST5X&lt;BR&gt;&lt;/FONT&gt;
    &lt;/TD&gt;
    &lt;TD BGCOLOR="#cccccc" ALIGN=CENTER&gt;&lt;FONT FACE=ARIAL SIZE=3&gt;
      -&lt;BR&gt;
      -&lt;BR&gt;
      -&lt;BR&gt;
      -&lt;BR&gt;
      -&lt;BR&gt;
      -&lt;BR&gt;&lt;/FONT&gt;
    &lt;/TD&gt;
    &lt;TD BGCOLOR="#cccccc" ALIGN=CENTER&gt;&lt;FONT FACE=ARIAL SIZE=3&gt;
      -&lt;BR&gt;
      -&lt;BR&gt;
      -&lt;BR&gt;
      -&lt;BR&gt;
      -&lt;BR&gt;
      -&lt;BR&gt;&lt;/FONT&gt;
    &lt;/TD&gt;
    &lt;TD BGCOLOR="#cccccc" ALIGN=CENTER&gt;&lt;FONT FACE=ARIAL SIZE=3&gt;
      -&lt;BR&gt;
      -&lt;BR&gt;
      -&lt;BR&gt;
      -&lt;BR&gt;
      -&lt;BR&gt;
      -&lt;BR&gt;&lt;/FONT&gt;
    &lt;/TD&gt;
  &lt;/TR&gt;
  &lt;TR&gt;
    &lt;TD COLSPAN=7&gt;&amp;nbsp;
    &lt;/TD&gt;
  &lt;/TR&gt;
  &lt;TR&gt;
    &lt;TD COLSPAN=7&gt;
      &lt;FONT SIZE=4 FACE=ARIAL&gt;&lt;B&gt;SINGLE TURN&lt;/B&gt;&lt;/FONT&gt;
    &lt;/TD&gt;
  &lt;/TR&gt;
  &lt;TR&gt;
    &lt;TD&gt;
      &lt;FONT SIZE=3 FACE=ARIAL&gt;&lt;B&gt;BOURNS&lt;/B&gt;&lt;/FONT&gt;
    &lt;/TD&gt;
    &lt;TD&gt;
      &lt;FONT SIZE=3 FACE=ARIAL&gt;&lt;B&gt;BI&amp;nbsp;TECH&lt;/B&gt;&lt;/FONT&gt;
    &lt;/TD&gt;
    &lt;TD&gt;
      &lt;FONT SIZE=3 FACE=ARIAL&gt;&lt;B&gt;DALE-VISHAY&lt;/B&gt;&lt;/FONT&gt;
    &lt;/TD&gt;
    &lt;TD&gt;
      &lt;FONT SIZE=3 FACE=ARIAL&gt;&lt;B&gt;PHILIPS/MEPCO&lt;/B&gt;&lt;/FONT&gt;
    &lt;/TD&gt;
    &lt;TD&gt;
      &lt;FONT SIZE=3 FACE=ARIAL&gt;&lt;B&gt;PANASONIC&lt;/B&gt;&lt;/FONT&gt;
    &lt;/TD&gt;
    &lt;TD&gt;
      &lt;FONT SIZE=3 FACE=ARIAL&gt;&lt;B&gt;TOCOS&lt;/B&gt;&lt;/FONT&gt;
    &lt;/TD&gt;
    &lt;TD&gt;
      &lt;FONT SIZE=3 FACE=ARIAL&gt;&lt;B&gt;AUX/KYOCERA&lt;/B&gt;&lt;/FONT&gt;
    &lt;/TD&gt;
  &lt;/TR&gt;
  &lt;TR&gt;
    &lt;TD BGCOLOR="#cccccc" ALIGN=CENTER&gt;&lt;FONT FACE=ARIAL SIZE=3&gt;
      3314G&lt;BR&gt;
      3314J&lt;BR&gt;
      3364A/B&lt;BR&gt;
      3364C/D&lt;BR&gt;
      3364W/X&lt;BR&gt;
      3313G&lt;BR&gt;
      3313J&lt;BR&gt;&lt;/FONT&gt;
    &lt;/TD&gt;
    &lt;TD BGCOLOR="#cccccc" ALIGN=CENTER&gt;&lt;FONT FACE=ARIAL SIZE=3&gt;
      23B&lt;BR&gt;
      23A&lt;BR&gt;
      21X&lt;BR&gt;
      21W&lt;BR&gt;
      -&lt;BR&gt;
      22B&lt;BR&gt;
      22A&lt;BR&gt;&lt;/FONT&gt;
    &lt;/TD&gt;
    &lt;TD BGCOLOR="#cccccc" ALIGN=CENTER&gt;&lt;FONT FACE=ARIAL SIZE=3&gt;
      ST5YL/ST53YL&lt;BR&gt;
      ST5YJ/5T53YJ&lt;BR&gt;
      ST-23A&lt;BR&gt;
      ST-22B&lt;BR&gt;
      ST-22&lt;BR&gt;
      -&lt;BR&gt;
      -&lt;BR&gt;&lt;/FONT&gt;
    &lt;/TD&gt;
    &lt;TD BGCOLOR="#cccccc" ALIGN=CENTER&gt;&lt;FONT FACE=ARIAL SIZE=3&gt;
      ST-4B&lt;BR&gt;
      ST-4A&lt;BR&gt;
      -&lt;BR&gt;
      -&lt;BR&gt;
      -&lt;BR&gt;
      ST-3B&lt;BR&gt;
      ST-3A&lt;BR&gt;&lt;/FONT&gt;
    &lt;/TD&gt;
    &lt;TD BGCOLOR="#cccccc" ALIGN=CENTER&gt;&lt;FONT FACE=ARIAL SIZE=3&gt;
      -&lt;BR&gt;
      EVM-6YS&lt;BR&gt;
      EVM-1E&lt;BR&gt;
      EVM-1G&lt;BR&gt;
      EVM-1D&lt;BR&gt;
      -&lt;BR&gt;
      -&lt;BR&gt;&lt;/FONT&gt;
    &lt;/TD&gt;
    &lt;TD BGCOLOR="#cccccc" ALIGN=CENTER&gt;&lt;FONT FACE=ARIAL SIZE=3&gt;
      G4B&lt;BR&gt;
      G4A&lt;BR&gt;
      TR04-3S1&lt;BR&gt;
      TRG04-2S1&lt;BR&gt;
      -&lt;BR&gt;
      -&lt;BR&gt;
      -&lt;BR&gt;&lt;/FONT&gt;
    &lt;/TD&gt;
    &lt;TD BGCOLOR="#cccccc" ALIGN=CENTER&gt;&lt;FONT FACE=ARIAL SIZE=3&gt;
      -&lt;BR&gt;
      -&lt;BR&gt;
      DVR-43A&lt;BR&gt;
      CVR-42C&lt;BR&gt;
      CVR-42A/C&lt;BR&gt;
      -&lt;BR&gt;
      -&lt;BR&gt;&lt;/FONT&gt;
    &lt;/TD&gt;
  &lt;/TR&gt;
&lt;/TABLE&gt;
&lt;P&gt;
&lt;FONT SIZE=4 FACE=ARIAL&gt;&lt;B&gt;ALT =&amp;nbsp;ALTERNATE&lt;/B&gt;&lt;/FONT&gt;
&lt;P&gt;

&amp;nbsp;
&lt;P&gt;
&lt;/td&gt;
&lt;/tr&gt;
&lt;/table&gt;</description>
<packages>
<package name="R0603">
<description>&lt;b&gt;RESISTOR&lt;/b&gt;</description>
<wire x1="-0.432" y1="-0.356" x2="0.432" y2="-0.356" width="0.1524" layer="51"/>
<wire x1="0.432" y1="0.356" x2="-0.432" y2="0.356" width="0.1524" layer="51"/>
<wire x1="-1.473" y1="0.983" x2="1.473" y2="0.983" width="0.0508" layer="39"/>
<wire x1="1.473" y1="0.983" x2="1.473" y2="-0.983" width="0.0508" layer="39"/>
<wire x1="1.473" y1="-0.983" x2="-1.473" y2="-0.983" width="0.0508" layer="39"/>
<wire x1="-1.473" y1="-0.983" x2="-1.473" y2="0.983" width="0.0508" layer="39"/>
<smd name="1" x="-0.85" y="0" dx="1" dy="1.1" layer="1"/>
<smd name="2" x="0.85" y="0" dx="1" dy="1.1" layer="1"/>
<text x="-0.635" y="0.635" size="1.27" layer="25">&gt;NAME</text>
<text x="-0.635" y="-1.905" size="1.27" layer="27">&gt;VALUE</text>
<rectangle x1="0.4318" y1="-0.4318" x2="0.8382" y2="0.4318" layer="51"/>
<rectangle x1="-0.8382" y1="-0.4318" x2="-0.4318" y2="0.4318" layer="51"/>
<rectangle x1="-0.1999" y1="-0.4001" x2="0.1999" y2="0.4001" layer="35"/>
</package>
<package name="C0603">
<description>&lt;b&gt;CAPACITOR&lt;/b&gt;</description>
<wire x1="-1.473" y1="0.983" x2="1.473" y2="0.983" width="0.0508" layer="39"/>
<wire x1="1.473" y1="0.983" x2="1.473" y2="-0.983" width="0.0508" layer="39"/>
<wire x1="1.473" y1="-0.983" x2="-1.473" y2="-0.983" width="0.0508" layer="39"/>
<wire x1="-1.473" y1="-0.983" x2="-1.473" y2="0.983" width="0.0508" layer="39"/>
<wire x1="-0.356" y1="0.432" x2="0.356" y2="0.432" width="0.1016" layer="51"/>
<wire x1="-0.356" y1="-0.419" x2="0.356" y2="-0.419" width="0.1016" layer="51"/>
<smd name="1" x="-0.85" y="0" dx="1.1" dy="1" layer="1"/>
<smd name="2" x="0.85" y="0" dx="1.1" dy="1" layer="1"/>
<text x="-0.635" y="0.635" size="1.27" layer="25">&gt;NAME</text>
<text x="-0.635" y="-1.905" size="1.27" layer="27">&gt;VALUE</text>
<rectangle x1="-0.8382" y1="-0.4699" x2="-0.3381" y2="0.4801" layer="51"/>
<rectangle x1="0.3302" y1="-0.4699" x2="0.8303" y2="0.4801" layer="51"/>
<rectangle x1="-0.1999" y1="-0.3" x2="0.1999" y2="0.3" layer="35"/>
</package>
</packages>
</library>
<library name="martonmiklos">
<description>Miklós Márton's EAGLE library.&lt;br&gt;
You can found the most recent version
&lt;a href=http://balubati.extra.hu/eagleparts.html&gt;here&lt;/a&gt;.</description>
<packages>
<package name="WT51822-S4AT">
<description>WT51822-S4AT is a high performance ,low power radio transmit and receive system module use Nordic BLE 4.1 nRF51822 as the controller chips.</description>
<wire x1="0" y1="9.1" x2="0" y2="0" width="0.127" layer="21"/>
<wire x1="0" y1="0" x2="14.55" y2="0" width="0.127" layer="21"/>
<wire x1="14.55" y1="0" x2="18.5" y2="0" width="0.127" layer="21"/>
<wire x1="18.5" y1="0" x2="18.5" y2="9.1" width="0.127" layer="21"/>
<wire x1="18.5" y1="9.1" x2="14.55" y2="9.1" width="0.127" layer="21"/>
<smd name="P7" x="3" y="0" dx="1.27" dy="0.5" layer="1" rot="R270"/>
<smd name="P8" x="4" y="0" dx="1.27" dy="0.5" layer="1" rot="R270"/>
<smd name="P9" x="5" y="0" dx="1.27" dy="0.5" layer="1" rot="R270"/>
<smd name="P10" x="6" y="0" dx="1.27" dy="0.5" layer="1" rot="R270"/>
<smd name="P11" x="7" y="0" dx="1.27" dy="0.5" layer="1" rot="R270"/>
<smd name="P1" x="0" y="8.1" dx="1.27" dy="0.5" layer="1"/>
<smd name="P2" x="0" y="7.1" dx="1.27" dy="0.5" layer="1"/>
<smd name="P3" x="0" y="6.1" dx="1.27" dy="0.5" layer="1"/>
<smd name="P4" x="0" y="5.1" dx="1.27" dy="0.5" layer="1"/>
<smd name="P5" x="0" y="4.1" dx="1.27" dy="0.5" layer="1"/>
<smd name="P6" x="0" y="3.1" dx="1.27" dy="0.5" layer="1"/>
<wire x1="14.55" y1="9.1" x2="0" y2="9.1" width="0.127" layer="21"/>
<wire x1="14.55" y1="0" x2="14.55" y2="9.1" width="0.127" layer="21"/>
<smd name="P13" x="14.05" y="0" dx="1.27" dy="0.5" layer="1" rot="R270"/>
<smd name="P12" x="12.9" y="0" dx="1.27" dy="0.5" layer="1" rot="R270"/>
<rectangle x1="11" y1="5.5" x2="13" y2="7.5" layer="43"/>
<rectangle x1="11" y1="2.5" x2="13" y2="4.5" layer="43"/>
<text x="3" y="10" size="1.27" layer="25">&gt;NAME</text>
<text x="2.5" y="-3" size="1.27" layer="27">&gt;VALUE</text>
<rectangle x1="14.5" y1="-20" x2="26.5" y2="29.1" layer="39"/>
<rectangle x1="14.5" y1="-20" x2="26.5" y2="29.1" layer="40"/>
</package>
</packages>
</library>
<library name="con_JST_XH_dmf">
<description>JST-XH headers.   Edited 4.10.15 dmf &lt;br&gt;
2 pin, 3 pin, 4 pin all should be OK&lt;br&gt;
&lt;br&gt;
Original version (wrong hole sizes) from this fellow: &lt;blockquote&gt;This libary is for adding JST-XH headers to you're project. It has pins 3-7. 
This is usefull for ballance connectors on lithium polymer batteries from 2-6 cells. 
The pin spacing was based on the datasheet that can be found here
http://www.jst-mfg.com/product/pdf/eng/eXH.pdf&lt;/blockquote&gt;</description>
<packages>
<package name="4_PIN_JST-XH">
<description>Corrected for XH 4 pin &lt;br&gt;
dmf 4.10.15 &lt;br&gt;

Source info: http://www.jst-mfg.com/product/pdf/eng/eXH.pdf &lt;br&gt;
Note: pin spacing is 2.5 mm &lt;br&gt;
Note: pins are 0.64 mm &lt;b&gt;square&lt;/b&gt; cross section. This means the pin diagonal is 0.905 mm.&lt;br&gt;

Hole diameter spec'd by jst is 0.9 mm; hole diameter used here is 1.0 mm&lt;br&gt;</description>
<pad name="1" x="2.45" y="3.4" drill="1" shape="long" rot="R90"/>
<pad name="2" x="4.95" y="3.4" drill="1" shape="long" rot="R90"/>
<pad name="3" x="7.45" y="3.4" drill="1" shape="long" rot="R90"/>
<pad name="4" x="9.95" y="3.4" drill="1" shape="long" rot="R90"/>
<wire x1="0" y1="0" x2="12.4" y2="0" width="0.127" layer="21"/>
<wire x1="12.4" y1="0" x2="12.4" y2="4" width="0.127" layer="21"/>
<wire x1="12.4" y1="4" x2="12.4" y2="5.75" width="0.127" layer="21"/>
<wire x1="12.4" y1="5.75" x2="2.45" y2="5.75" width="0.127" layer="21"/>
<wire x1="2.45" y1="5.75" x2="0" y2="5.75" width="0.127" layer="21"/>
<wire x1="0" y1="5.75" x2="0" y2="0" width="0.127" layer="21"/>
<wire x1="0.05" y1="4" x2="0.55" y2="4" width="0.127" layer="21"/>
<wire x1="12.4" y1="4" x2="11.85" y2="4" width="0.127" layer="21"/>
<wire x1="2.45" y1="5.75" x2="2.45" y2="5.3" width="0.127" layer="21"/>
<wire x1="9.95" y1="5.7" x2="9.95" y2="5.3" width="0.127" layer="21"/>
</package>
<package name="3_PIN_JST-XH">
<description>Corrected for XH 3 pin &lt;br&gt;
dmf 4.10.15 &lt;br&gt;

Source info: http://www.jst-mfg.com/product/pdf/eng/eXH.pdf &lt;br&gt;
Note: pin spacing is 2.5 mm &lt;br&gt;
Note: pins are 0.64 mm &lt;b&gt;square&lt;/b&gt; cross section. This means the pin diagonal is 0.905 mm.&lt;br&gt;

Hole diameter spec'd by jst is 0.9 mm; hole diameter used here is 1.0 mm&lt;br&gt;</description>
<wire x1="0" y1="0" x2="9.9" y2="0" width="0.127" layer="21"/>
<wire x1="9.9" y1="0" x2="9.9" y2="5.75" width="0.127" layer="21"/>
<wire x1="9.9" y1="5.75" x2="7.45" y2="5.75" width="0.127" layer="21"/>
<wire x1="7.45" y1="5.75" x2="2.45" y2="5.75" width="0.127" layer="21"/>
<wire x1="2.45" y1="5.75" x2="0" y2="5.75" width="0.127" layer="21"/>
<wire x1="0" y1="5.75" x2="0" y2="3.95" width="0.127" layer="21"/>
<pad name="P$1" x="2.45" y="3.4" drill="1" shape="long" rot="R90"/>
<pad name="P$2" x="4.95" y="3.4" drill="1" shape="long" rot="R90"/>
<pad name="P$3" x="7.45" y="3.4" drill="1" shape="long" rot="R90"/>
<wire x1="0" y1="3.95" x2="0" y2="0" width="0.127" layer="21"/>
<wire x1="2.45" y1="5.75" x2="2.45" y2="5.3" width="0.127" layer="21"/>
<wire x1="7.45" y1="5.75" x2="7.45" y2="5.3" width="0.127" layer="21"/>
<wire x1="0" y1="3.95" x2="0.5" y2="3.95" width="0.127" layer="21"/>
<wire x1="9.35" y1="3.95" x2="9.85" y2="3.95" width="0.127" layer="21"/>
<text x="1.27" y="6.35" size="1.27" layer="25">&gt;NAME</text>
<text x="1.27" y="-2.54" size="1.27" layer="27">&gt;VALUE</text>
</package>
</packages>
</library>
<library name="con-molex">
<description>&lt;b&gt;Molex Connectors&lt;/b&gt;&lt;p&gt;
&lt;author&gt;Created by librarian@cadsoft.de&lt;/author&gt;</description>
<packages>
<package name="53047-04">
<description>&lt;b&gt;CONNECTOR&lt;/b&gt;&lt;p&gt;
wire to board 1.25 mm (.049 inch) pitch header&lt;p&gt;
straight&lt;br&gt;
Sourcxe: http://www.molex.com/pdm_docs/sd/530470210_sd.pdf</description>
<wire x1="-3.275" y1="-1.5" x2="3.275" y2="-1.5" width="0.2032" layer="21"/>
<wire x1="3.275" y1="-1.5" x2="3.275" y2="1.5" width="0.2032" layer="21"/>
<wire x1="3.275" y1="1.5" x2="-3.275" y2="1.5" width="0.2032" layer="21"/>
<wire x1="-3.275" y1="1.5" x2="-3.275" y2="-1.5" width="0.2032" layer="21"/>
<wire x1="-3.25" y1="-0.25" x2="-2.875" y2="-0.25" width="0.0508" layer="21"/>
<wire x1="-2.875" y1="-0.25" x2="-2.875" y2="-1.25" width="0.0508" layer="21"/>
<wire x1="2.875" y1="-0.25" x2="3.25" y2="-0.25" width="0.0508" layer="21"/>
<wire x1="2.875" y1="-0.25" x2="2.875" y2="-1.25" width="0.0508" layer="21"/>
<wire x1="-3.25" y1="0.375" x2="-2.875" y2="0.375" width="0.0508" layer="21"/>
<wire x1="2.875" y1="0.375" x2="3.25" y2="0.375" width="0.0508" layer="21"/>
<wire x1="-2.875" y1="0.375" x2="-2.875" y2="1.125" width="0.0508" layer="21"/>
<wire x1="-2.875" y1="1.125" x2="2.875" y2="1.125" width="0.0508" layer="21"/>
<wire x1="2.875" y1="1.125" x2="2.875" y2="0.375" width="0.0508" layer="21"/>
<wire x1="2.875" y1="1.125" x2="3.125" y2="1.375" width="0.0508" layer="21"/>
<wire x1="-2.875" y1="1.125" x2="-3.125" y2="1.375" width="0.0508" layer="21"/>
<pad name="1" x="1.875" y="0.45" drill="0.5" diameter="0.6984" shape="long" rot="R90"/>
<pad name="2" x="0.625" y="0.45" drill="0.5" diameter="0.6984" shape="long" rot="R90"/>
<pad name="3" x="-0.625" y="0.45" drill="0.5" diameter="0.6984" shape="long" rot="R90"/>
<pad name="4" x="-1.875" y="0.45" drill="0.5" diameter="0.6984" shape="long" rot="R90"/>
<text x="-3.125" y="1.75" size="1.27" layer="25">&gt;NAME</text>
<text x="-2.625" y="-3.25" size="1.27" layer="27">&gt;VALUE</text>
<rectangle x1="-3.25" y1="-1.5" x2="3.25" y2="-1.125" layer="21"/>
</package>
</packages>
</library>
<library name="LTC_By_element14_Batch_1">
<description>Developed by element14 :&lt;br&gt;
element14 CAD Library consolidation.ulp
at 30/07/2012 10:08:22</description>
<packages>
<package name="SOT95P280X145-5N">
<smd name="1" x="-1.2954" y="0.9398" dx="1.27" dy="0.5588" layer="1"/>
<smd name="2" x="-1.2954" y="0" dx="1.27" dy="0.5588" layer="1"/>
<smd name="3" x="-1.2954" y="-0.9398" dx="1.27" dy="0.5588" layer="1"/>
<smd name="4" x="1.2954" y="-0.9398" dx="1.27" dy="0.5588" layer="1"/>
<smd name="5" x="1.2954" y="0.9398" dx="1.27" dy="0.5588" layer="1"/>
<wire x1="-0.4826" y1="-1.4986" x2="0.4826" y2="-1.4986" width="0.1524" layer="21"/>
<wire x1="0.8636" y1="-0.3302" x2="0.8636" y2="0.3302" width="0.1524" layer="21"/>
<wire x1="0.4826" y1="1.4986" x2="0.3048" y2="1.4986" width="0.1524" layer="21"/>
<wire x1="0.3048" y1="1.4986" x2="-0.3048" y2="1.4986" width="0.1524" layer="21"/>
<wire x1="-0.3048" y1="1.4986" x2="-0.4826" y2="1.4986" width="0.1524" layer="21"/>
<wire x1="0.3048" y1="1.4986" x2="-0.3048" y2="1.4986" width="0.1524" layer="21" curve="-180"/>
<text x="-2.1336" y="1.3716" size="1.27" layer="21" ratio="6" rot="SR0">*</text>
<wire x1="-0.8636" y1="-1.4986" x2="0.8636" y2="-1.4986" width="0" layer="51"/>
<wire x1="0.8636" y1="-1.4986" x2="0.8636" y2="-1.1938" width="0" layer="51"/>
<wire x1="0.8636" y1="-1.1938" x2="0.8636" y2="-0.7112" width="0" layer="51"/>
<wire x1="0.8636" y1="-0.7112" x2="0.8636" y2="0.7112" width="0" layer="51"/>
<wire x1="0.8636" y1="1.4986" x2="0.3048" y2="1.4986" width="0" layer="51"/>
<wire x1="0.3048" y1="1.4986" x2="-0.3048" y2="1.4986" width="0" layer="51"/>
<wire x1="-0.3048" y1="1.4986" x2="-0.8636" y2="1.4986" width="0" layer="51"/>
<wire x1="-0.8636" y1="1.4986" x2="-0.8636" y2="1.1938" width="0" layer="51"/>
<wire x1="-0.8636" y1="1.1938" x2="-0.8636" y2="0.7112" width="0" layer="51"/>
<wire x1="-0.8636" y1="0.7112" x2="-0.8636" y2="0.254" width="0" layer="51"/>
<wire x1="-0.8636" y1="0.254" x2="-0.8636" y2="-0.254" width="0" layer="51"/>
<wire x1="-0.8636" y1="-0.254" x2="-0.8636" y2="-0.7112" width="0" layer="51"/>
<wire x1="-0.8636" y1="1.1938" x2="-1.4986" y2="1.1938" width="0" layer="51"/>
<wire x1="-1.4986" y1="1.1938" x2="-1.4986" y2="0.7112" width="0" layer="51"/>
<wire x1="-1.4986" y1="0.7112" x2="-0.8636" y2="0.7112" width="0" layer="51"/>
<wire x1="-0.8636" y1="0.254" x2="-1.4986" y2="0.254" width="0" layer="51"/>
<wire x1="-1.4986" y1="0.254" x2="-1.4986" y2="-0.254" width="0" layer="51"/>
<wire x1="-1.4986" y1="-0.254" x2="-0.8636" y2="-0.254" width="0" layer="51"/>
<wire x1="-0.8636" y1="-1.4986" x2="-0.8636" y2="-1.1938" width="0" layer="51"/>
<wire x1="-0.8636" y1="-1.1938" x2="-0.8636" y2="-0.7112" width="0" layer="51"/>
<wire x1="-0.8636" y1="-0.7112" x2="-1.4986" y2="-0.7112" width="0" layer="51"/>
<wire x1="-1.4986" y1="-0.7112" x2="-1.4986" y2="-1.1938" width="0" layer="51"/>
<wire x1="-1.4986" y1="-1.1938" x2="-0.8636" y2="-1.1938" width="0" layer="51"/>
<wire x1="0.8636" y1="-1.1938" x2="1.4986" y2="-1.1938" width="0" layer="51"/>
<wire x1="1.4986" y1="-1.1938" x2="1.4986" y2="-0.7112" width="0" layer="51"/>
<wire x1="1.4986" y1="-0.7112" x2="0.8636" y2="-0.7112" width="0" layer="51"/>
<wire x1="0.8636" y1="1.4986" x2="0.8636" y2="1.1938" width="0" layer="51"/>
<wire x1="0.8636" y1="1.1938" x2="0.8636" y2="0.7112" width="0" layer="51"/>
<wire x1="0.8636" y1="0.7112" x2="1.4986" y2="0.7112" width="0" layer="51"/>
<wire x1="1.4986" y1="0.7112" x2="1.4986" y2="1.1938" width="0" layer="51"/>
<wire x1="1.4986" y1="1.1938" x2="0.8636" y2="1.1938" width="0" layer="51"/>
<wire x1="0.3048" y1="1.4986" x2="-0.3048" y2="1.4986" width="0" layer="51" curve="-180"/>
<text x="-2.1336" y="1.3716" size="1.27" layer="51" ratio="6" rot="SR0">*</text>
<text x="-3.4544" y="2.54" size="2.0828" layer="25" ratio="10" rot="SR0">&gt;NAME</text>
<text x="-3.4544" y="-4.445" size="2.0828" layer="27" ratio="10" rot="SR0">&gt;VALUE</text>
</package>
</packages>
</library>
</libraries>
<attributes>
</attributes>
<variantdefs>
</variantdefs>
<classes>
<class number="0" name="default" width="0" drill="0">
</class>
</classes>
<designrules name="dirt_cheap_dirty_boards.v1">
<description language="en">&lt;b&gt;Dirty Cheap Dirty Board Design Rules&lt;/b&gt;
&lt;br&gt;
&lt;br&gt;Min width/Spacing: 5/5mil
&lt;br&gt;Min diameter of finished hole 12mil</description>
<param name="layerSetup" value="(1*16)"/>
<param name="mtCopper" value="0.035mm 0.0175mm 0.035mm 0.035mm 0.035mm 0.035mm 0.035mm 0.035mm 0.035mm 0.035mm 0.035mm 0.035mm 0.035mm 0.035mm 0.0175mm 0.035mm"/>
<param name="mtIsolate" value="1.5mm 1.1mm 0.2mm 0.15mm 0.2mm 0.15mm 0.2mm 0.15mm 0.2mm 0.15mm 0.2mm 0.15mm 0.2mm 0.15mm 0.2mm"/>
<param name="mdWireWire" value="6mil"/>
<param name="mdWirePad" value="6mil"/>
<param name="mdWireVia" value="6mil"/>
<param name="mdPadPad" value="6mil"/>
<param name="mdPadVia" value="6mil"/>
<param name="mdViaVia" value="6mil"/>
<param name="mdSmdPad" value="0mil"/>
<param name="mdSmdVia" value="0mil"/>
<param name="mdSmdSmd" value="0mil"/>
<param name="mdViaViaSameLayer" value="8mil"/>
<param name="mnLayersViaInSmd" value="2"/>
<param name="mdCopperDimension" value="10mil"/>
<param name="mdDrill" value="10mil"/>
<param name="mdSmdStop" value="0mil"/>
<param name="msWidth" value="5mil"/>
<param name="msDrill" value="0.3mm"/>
<param name="msMicroVia" value="12mil"/>
<param name="msBlindViaRatio" value="0.5"/>
<param name="rvPadTop" value="0.25"/>
<param name="rvPadInner" value="0.25"/>
<param name="rvPadBottom" value="0.25"/>
<param name="rvViaOuter" value="0.25"/>
<param name="rvViaInner" value="0.25"/>
<param name="rvMicroViaOuter" value="0.25"/>
<param name="rvMicroViaInner" value="0.25"/>
<param name="rlMinPadTop" value="10mil"/>
<param name="rlMaxPadTop" value="20mil"/>
<param name="rlMinPadInner" value="10mil"/>
<param name="rlMaxPadInner" value="20mil"/>
<param name="rlMinPadBottom" value="10mil"/>
<param name="rlMaxPadBottom" value="20mil"/>
<param name="rlMinViaOuter" value="6mil"/>
<param name="rlMaxViaOuter" value="20mil"/>
<param name="rlMinViaInner" value="6mil"/>
<param name="rlMaxViaInner" value="20mil"/>
<param name="rlMinMicroViaOuter" value="4mil"/>
<param name="rlMaxMicroViaOuter" value="20mil"/>
<param name="rlMinMicroViaInner" value="4mil"/>
<param name="rlMaxMicroViaInner" value="20mil"/>
<param name="psTop" value="-1"/>
<param name="psBottom" value="-1"/>
<param name="psFirst" value="0"/>
<param name="psElongationLong" value="100"/>
<param name="psElongationOffset" value="100"/>
<param name="mvStopFrame" value="1"/>
<param name="mvCreamFrame" value="0"/>
<param name="mlMinStopFrame" value="2mil"/>
<param name="mlMaxStopFrame" value="2mil"/>
<param name="mlMinCreamFrame" value="0mil"/>
<param name="mlMaxCreamFrame" value="0mil"/>
<param name="mlViaStopLimit" value="25mil"/>
<param name="srRoundness" value="0"/>
<param name="srMinRoundness" value="0mil"/>
<param name="srMaxRoundness" value="0mil"/>
<param name="slThermalIsolate" value="10mil"/>
<param name="slThermalsForVias" value="0"/>
<param name="dpMaxLengthDifference" value="10mm"/>
<param name="dpGapFactor" value="2.5"/>
<param name="checkGrid" value="0"/>
<param name="checkAngle" value="0"/>
<param name="checkFont" value="1"/>
<param name="checkRestrict" value="0"/>
<param name="useDiameter" value="13"/>
<param name="maxErrors" value="50"/>
</designrules>
<autorouter>
<pass name="Default">
<param name="RoutingGrid" value="50mil"/>
<param name="AutoGrid" value="1"/>
<param name="Efforts" value="0"/>
<param name="TopRouterVariant" value="1"/>
<param name="tpViaShape" value="round"/>
<param name="PrefDir.1" value="a"/>
<param name="PrefDir.2" value="0"/>
<param name="PrefDir.3" value="0"/>
<param name="PrefDir.4" value="0"/>
<param name="PrefDir.5" value="0"/>
<param name="PrefDir.6" value="0"/>
<param name="PrefDir.7" value="0"/>
<param name="PrefDir.8" value="0"/>
<param name="PrefDir.9" value="0"/>
<param name="PrefDir.10" value="0"/>
<param name="PrefDir.11" value="0"/>
<param name="PrefDir.12" value="0"/>
<param name="PrefDir.13" value="0"/>
<param name="PrefDir.14" value="0"/>
<param name="PrefDir.15" value="0"/>
<param name="PrefDir.16" value="a"/>
<param name="cfVia" value="8"/>
<param name="cfNonPref" value="5"/>
<param name="cfChangeDir" value="2"/>
<param name="cfOrthStep" value="2"/>
<param name="cfDiagStep" value="3"/>
<param name="cfExtdStep" value="0"/>
<param name="cfBonusStep" value="1"/>
<param name="cfMalusStep" value="1"/>
<param name="cfPadImpact" value="4"/>
<param name="cfSmdImpact" value="4"/>
<param name="cfBusImpact" value="0"/>
<param name="cfHugging" value="3"/>
<param name="cfAvoid" value="4"/>
<param name="cfPolygon" value="10"/>
<param name="cfBase.1" value="0"/>
<param name="cfBase.2" value="1"/>
<param name="cfBase.3" value="1"/>
<param name="cfBase.4" value="1"/>
<param name="cfBase.5" value="1"/>
<param name="cfBase.6" value="1"/>
<param name="cfBase.7" value="1"/>
<param name="cfBase.8" value="1"/>
<param name="cfBase.9" value="1"/>
<param name="cfBase.10" value="1"/>
<param name="cfBase.11" value="1"/>
<param name="cfBase.12" value="1"/>
<param name="cfBase.13" value="1"/>
<param name="cfBase.14" value="1"/>
<param name="cfBase.15" value="1"/>
<param name="cfBase.16" value="0"/>
<param name="mnVias" value="20"/>
<param name="mnSegments" value="9999"/>
<param name="mnExtdSteps" value="9999"/>
<param name="mnRipupLevel" value="10"/>
<param name="mnRipupSteps" value="100"/>
<param name="mnRipupTotal" value="100"/>
</pass>
<pass name="Follow-me" refer="Default" active="yes">
</pass>
<pass name="Busses" refer="Default" active="yes">
<param name="cfNonPref" value="4"/>
<param name="cfBusImpact" value="4"/>
<param name="cfHugging" value="0"/>
<param name="mnVias" value="0"/>
</pass>
<pass name="Route" refer="Default" active="yes">
</pass>
<pass name="Optimize1" refer="Default" active="yes">
<param name="cfVia" value="99"/>
<param name="cfExtdStep" value="10"/>
<param name="cfHugging" value="1"/>
<param name="mnExtdSteps" value="1"/>
<param name="mnRipupLevel" value="0"/>
</pass>
<pass name="Optimize2" refer="Optimize1" active="yes">
<param name="cfNonPref" value="0"/>
<param name="cfChangeDir" value="6"/>
<param name="cfExtdStep" value="0"/>
<param name="cfBonusStep" value="2"/>
<param name="cfMalusStep" value="2"/>
<param name="cfPadImpact" value="2"/>
<param name="cfSmdImpact" value="2"/>
<param name="cfHugging" value="0"/>
</pass>
<pass name="Optimize3" refer="Optimize2" active="yes">
<param name="cfChangeDir" value="8"/>
<param name="cfPadImpact" value="0"/>
<param name="cfSmdImpact" value="0"/>
</pass>
<pass name="Optimize4" refer="Optimize3" active="yes">
<param name="cfChangeDir" value="25"/>
</pass>
</autorouter>
<elements>
<element name="Q1" library="SparkFun" package="SOT23-3" value="DMG6968U-7" x="7.366" y="16.937" smashed="yes" rot="MR0">
<attribute name="NAME" x="9.4615" y="18.207" size="0.8128" layer="26" font="vector" rot="MR0"/>
<attribute name="VALUE" x="8.382" y="16.7465" size="0.4064" layer="28" rot="MR0"/>
</element>
<element name="Q2" library="SparkFun" package="SOT23-3" value="DMG6968U-7" x="2.286" y="16.937" smashed="yes" rot="MR0">
<attribute name="NAME" x="4.1275" y="18.207" size="0.8128" layer="26" font="vector" rot="MR0"/>
<attribute name="VALUE" x="3.302" y="16.7465" size="0.4064" layer="28" rot="MR0"/>
</element>
<element name="Q3" library="SparkFun" package="SOT23-3" value="MOSFET-NCHANNELSMD" x="8.89" y="11.603" smashed="yes" rot="MR270">
<attribute name="NAME" x="8.0645" y="9.825" size="0.8128" layer="26" font="vector" rot="MR180"/>
<attribute name="VALUE" x="9.0805" y="12.619" size="0.4064" layer="28" rot="MR270"/>
</element>
<element name="R1" library="rcl" package="R0603" value="47K" x="7.366" y="14.397" smashed="yes" rot="MR0">
<attribute name="NAME" x="9.779" y="15.286" size="0.8128" layer="26" font="vector" rot="MR270"/>
<attribute name="VALUE" x="8.001" y="12.492" size="1.27" layer="28" rot="MR0"/>
</element>
<element name="R2" library="rcl" package="R0603" value="10" x="2.448" y="12.873" smashed="yes" rot="R90">
<attribute name="NAME" x="1.329" y="12.378" size="0.6096" layer="25" font="vector" rot="R90"/>
<attribute name="VALUE" x="4.353" y="12.238" size="1.27" layer="27" rot="R90"/>
</element>
<element name="R3" library="rcl" package="R0603" value="47K" x="2.286" y="14.397" smashed="yes" rot="MR180">
<attribute name="NAME" x="1.651" y="13.254" size="0.8128" layer="26" font="vector" rot="MR180"/>
<attribute name="VALUE" x="1.651" y="16.302" size="1.27" layer="28" rot="MR180"/>
</element>
<element name="R4" library="rcl" package="R0603" value="10" x="2.373" y="15.784" smashed="yes" rot="R180">
<attribute name="NAME" x="0.678" y="14.041" size="0.6096" layer="25" font="vector"/>
<attribute name="VALUE" x="3.008" y="17.689" size="1.27" layer="27" rot="R180"/>
</element>
<element name="R5" library="rcl" package="R0603" value="10K" x="11.684" y="18.969" smashed="yes" rot="MR180">
<attribute name="NAME" x="10.795" y="20.874" size="0.8128" layer="26" font="vector" rot="MR180"/>
<attribute name="VALUE" x="11.049" y="20.874" size="1.27" layer="28" rot="MR180"/>
</element>
<element name="R6" library="rcl" package="R0603" value="91K" x="7.62" y="17.191" smashed="yes" rot="R90">
<attribute name="NAME" x="1.464" y="17.341" size="0.6096" layer="25" font="vector"/>
<attribute name="VALUE" x="9.525" y="16.556" size="1.27" layer="27" rot="R90"/>
</element>
<element name="R7" library="rcl" package="R0603" value="10K" x="9.652" y="17.191" smashed="yes" rot="R270">
<attribute name="NAME" x="2.964" y="17.271" size="0.6096" layer="25" font="vector"/>
<attribute name="VALUE" x="7.747" y="17.826" size="1.27" layer="27" rot="R270"/>
</element>
<element name="U1" library="martonmiklos" package="WT51822-S4AT" value="WT51822-S4" x="4.318" y="14.651" smashed="yes" rot="R270">
<attribute name="NAME" x="2.085" y="0.61" size="0.6096" layer="25" font="vector"/>
<attribute name="VALUE" x="1.318" y="12.151" size="1.27" layer="27" rot="R270"/>
</element>
<element name="C1" library="rcl" package="C0603" value="10nF" x="12.192" y="16.683" smashed="yes" rot="R180">
<attribute name="NAME" x="12.481" y="18.588" size="0.6096" layer="25" font="vector" rot="R180"/>
<attribute name="VALUE" x="12.827" y="18.588" size="1.27" layer="27" rot="R180"/>
</element>
<element name="C2" library="rcl" package="C0603" value="100n" x="12.192" y="14.651" smashed="yes" rot="MR0">
<attribute name="NAME" x="15.367" y="13.508" size="0.8128" layer="26" font="vector" rot="MR0"/>
<attribute name="VALUE" x="12.827" y="12.746" size="1.27" layer="28" rot="MR0"/>
</element>
<element name="C3" library="rcl" package="C0603" value="1uF" x="12.192" y="16.683" smashed="yes" rot="MR0">
<attribute name="NAME" x="15.367" y="14.778" size="0.8128" layer="26" font="vector" rot="MR0"/>
<attribute name="VALUE" x="12.827" y="14.778" size="1.27" layer="28" rot="MR0"/>
</element>
<element name="U$1" library="con_JST_XH_dmf" package="4_PIN_JST-XH" value="4_PIN_JST-XH" x="11.938" y="24.557" smashed="yes" rot="R180"/>
<element name="SWD" library="con-molex" package="53047-04" value="53047-04" x="1.27" y="6.523" smashed="yes" rot="R270">
<attribute name="MF" value="WALDOM/MOLEX" x="1.27" y="6.523" size="1.778" layer="27" font="vector" rot="R270" display="off"/>
<attribute name="MPN" value="53047-0410" x="1.27" y="6.523" size="1.778" layer="27" font="vector" rot="R270" display="off"/>
<attribute name="NAME" x="2.687" y="2.741" size="0.6096" layer="25" font="vector" rot="R180"/>
<attribute name="OC_FARNELL" value="9733060" x="1.27" y="6.523" size="1.778" layer="27" font="vector" rot="R270" display="off"/>
<attribute name="OC_NEWARK" value="38C9900" x="1.27" y="6.523" size="1.778" layer="27" font="vector" rot="R270" display="off"/>
<attribute name="VALUE" x="-1.98" y="9.148" size="1.27" layer="27" rot="R270"/>
</element>
<element name="BATT" library="con_JST_XH_dmf" package="3_PIN_JST-XH" value="3_PIN_JST-XH" x="13.716" y="14.007" smashed="yes" rot="R270">
<attribute name="NAME" x="14.224" y="2.877" size="0.6096" layer="25" font="vector"/>
<attribute name="VALUE" x="11.176" y="12.737" size="1.27" layer="27" rot="R270"/>
</element>
<element name="U2" library="LTC_By_element14_Batch_1" package="SOT95P280X145-5N" value="MIC5205-3.3YM5-TR" x="16.256" y="19.985" smashed="yes">
<attribute name="MPN" value="LT1761ES5-3.3#TRMPBF" x="16.256" y="19.985" size="1.778" layer="27" font="vector" display="off"/>
<attribute name="NAME" x="15.7246" y="17.596" size="0.6096" layer="25" font="vector" ratio="10" rot="SR0"/>
<attribute name="OC_FARNELL" value="1663779" x="16.256" y="19.985" size="1.778" layer="27" font="vector" display="off"/>
<attribute name="OC_NEWARK" value="19P0920" x="16.256" y="19.985" size="1.778" layer="27" font="vector" display="off"/>
<attribute name="OC_TME" value="MIC5205-3.3YM5-TR" x="16.256" y="19.985" size="1.778" layer="27" display="off"/>
<attribute name="PACKAGE" value="SOT-23-5" x="16.256" y="19.985" size="1.778" layer="27" font="vector" display="off"/>
<attribute name="SUPPLIER" value="Linear Technology" x="16.256" y="19.985" size="1.778" layer="27" font="vector" display="off"/>
<attribute name="VALUE" x="12.8016" y="15.54" size="2.0828" layer="27" ratio="10" rot="SR0"/>
</element>
<element name="C4" library="rcl" package="C0603" value="1uF" x="13.208" y="20.493" smashed="yes" rot="R270">
<attribute name="NAME" x="12.573" y="22.144" size="0.6096" layer="25" font="vector"/>
<attribute name="VALUE" x="11.303" y="21.128" size="1.27" layer="27" rot="R270"/>
</element>
<element name="C5" library="rcl" package="C0603" value="1uF" x="16.764" y="22.525" smashed="yes" rot="R180">
<attribute name="NAME" x="18.415" y="23.16" size="0.6096" layer="25" font="vector" rot="R270"/>
<attribute name="VALUE" x="17.399" y="24.43" size="1.27" layer="27" rot="R180"/>
</element>
<element name="C6" library="rcl" package="C0603" value="470pF" x="16.8" y="16.5" smashed="yes" rot="R180">
<attribute name="NAME" x="17.435" y="15.265" size="0.6096" layer="25" font="vector" rot="R180"/>
<attribute name="VALUE" x="17.435" y="18.405" size="1.27" layer="27" rot="R180"/>
</element>
</elements>
<signals>
<signal name="VCC">
<contactref element="U1" pad="P1"/>
<contactref element="C1" pad="1"/>
<contactref element="C2" pad="1"/>
<contactref element="C3" pad="1"/>
<contactref element="SWD" pad="1"/>
<wire x1="12.446" y1="14.651" x2="12.418" y2="14.651" width="0.254" layer="1"/>
<wire x1="1.72" y1="4.648" x2="4.221" y2="4.648" width="0.254" layer="1"/>
<contactref element="U2" pad="5"/>
<contactref element="C5" pad="1"/>
<wire x1="17.5514" y1="20.9248" x2="17.5514" y2="22.4624" width="0.254" layer="1"/>
<wire x1="17.5514" y1="22.4624" x2="17.614" y2="22.525" width="0.254" layer="1"/>
<wire x1="12.446" y1="14.679" x2="12.418" y2="14.651" width="0.254" layer="1"/>
<via x="14.732" y="14.583" extent="1-16" drill="0.5" diameter="1.05" shape="octagon"/>
<wire x1="12.418" y1="14.651" x2="12.418" y2="15.385" width="0.254" layer="1"/>
<wire x1="13.042" y1="16.009" x2="13.042" y2="16.683" width="0.254" layer="1"/>
<wire x1="12.418" y1="15.385" x2="13.042" y2="16.009" width="0.254" layer="1"/>
<wire x1="13.042" y1="14.651" x2="13.042" y2="16.683" width="0.254" layer="16"/>
<wire x1="8.636" y1="9.063" x2="11.938" y2="9.063" width="0.254" layer="1"/>
<wire x1="11.938" y1="9.063" x2="12.954" y2="10.079" width="0.254" layer="1"/>
<wire x1="12.954" y1="10.079" x2="12.954" y2="12.873" width="0.254" layer="1"/>
<wire x1="12.954" y1="12.873" x2="12.418" y2="13.409" width="0.254" layer="1"/>
<wire x1="12.418" y1="13.409" x2="12.418" y2="14.651" width="0.254" layer="1"/>
<wire x1="4.221" y1="4.648" x2="8.636" y2="9.063" width="0.254" layer="1"/>
<wire x1="18.796" y1="20.493" x2="18.3642" y2="20.9248" width="0.254" layer="1"/>
<wire x1="18.3642" y1="20.9248" x2="17.5514" y2="20.9248" width="0.254" layer="1"/>
<wire x1="14.732" y1="14.583" x2="13.11" y2="14.583" width="0.254" layer="16"/>
<wire x1="13.11" y1="14.583" x2="13.042" y2="14.651" width="0.254" layer="16"/>
<wire x1="12.418" y1="14.651" x2="14.664" y2="14.651" width="0.254" layer="1"/>
<wire x1="14.664" y1="14.651" x2="14.732" y2="14.583" width="0.254" layer="1"/>
<wire x1="14.732" y1="14.583" x2="17.883" y2="14.583" width="0.254" layer="1"/>
<wire x1="17.883" y1="14.583" x2="18.796" y2="15.496" width="0.254" layer="1"/>
<wire x1="18.796" y1="15.496" x2="18.796" y2="20.493" width="0.254" layer="1"/>
</signal>
<signal name="GND">
<contactref element="Q3" pad="3"/>
<contactref element="U1" pad="P2"/>
<contactref element="U1" pad="P13"/>
<contactref element="U1" pad="P12"/>
<contactref element="R7" pad="1"/>
<wire x1="4.318" y1="0.601" x2="4.318" y2="1.751" width="0.4064" layer="1"/>
<contactref element="C1" pad="2"/>
<contactref element="C2" pad="2"/>
<contactref element="C3" pad="2"/>
<wire x1="4.318" y1="1.751" x2="5.594" y2="1.751" width="0.4064" layer="1"/>
<wire x1="5.594" y1="1.751" x2="6.032" y2="1.443" width="0.4064" layer="1"/>
<via x="6.032" y="1.443" extent="1-16" drill="0.5" diameter="1.05" shape="octagon"/>
<via x="6.35" y="11.603" extent="1-16" drill="0.5" diameter="1.05" shape="octagon"/>
<wire x1="6.858" y1="12.111" x2="6.35" y2="11.603" width="0.254" layer="1"/>
<wire x1="6.858" y1="12.111" x2="11.43" y2="12.111" width="0.254" layer="1"/>
<wire x1="11.43" y1="12.111" x2="11.418" y2="12.353" width="0.254" layer="1"/>
<wire x1="11.418" y1="12.353" x2="11.418" y2="14.651" width="0.254" layer="1"/>
<contactref element="Q2" pad="2"/>
<contactref element="R3" pad="1"/>
<wire x1="1.436" y1="14.397" x2="1.436" y2="15.837" width="0.4064" layer="16"/>
<wire x1="1.436" y1="15.837" x2="1.336" y2="15.937" width="0.4064" layer="16"/>
<contactref element="Q1" pad="2"/>
<contactref element="R1" pad="2"/>
<wire x1="6.416" y1="15.937" x2="6.35" y2="16.003" width="0.4064" layer="16"/>
<wire x1="6.516" y1="14.397" x2="6.516" y2="15.837" width="0.8128" layer="16"/>
<wire x1="6.516" y1="15.837" x2="6.416" y2="15.937" width="0.4064" layer="16"/>
<wire x1="6.35" y1="11.857" x2="6.516" y2="12.023" width="0.8128" layer="16"/>
<wire x1="6.516" y1="12.023" x2="6.516" y2="14.397" width="0.8128" layer="16"/>
<wire x1="1.336" y1="15.937" x2="1.27" y2="15.871" width="0.8128" layer="16"/>
<wire x1="1.27" y1="15.871" x2="1.27" y2="11.857" width="0.8128" layer="16"/>
<wire x1="1.27" y1="11.857" x2="6.35" y2="11.857" width="0.8128" layer="16"/>
<contactref element="SWD" pad="3"/>
<wire x1="6.35" y1="7.401" x2="6.35" y2="11.603" width="0.254" layer="16"/>
<contactref element="U2" pad="2"/>
<contactref element="C4" pad="2"/>
<contactref element="C5" pad="2"/>
<wire x1="13.55" y1="19.985" x2="14.9606" y2="19.985" width="0.254" layer="1"/>
<wire x1="13.55" y1="19.985" x2="13.208" y2="19.643" width="0.254" layer="1"/>
<wire x1="14.9606" y1="19.985" x2="15.9" y2="19.985" width="0.254" layer="1"/>
<wire x1="15.9" y1="19.985" x2="16.002" y2="19.985" width="0.254" layer="1"/>
<wire x1="11.342" y1="16.683" x2="11.342" y2="17.953" width="0.254" layer="1"/>
<wire x1="11.254" y1="18.041" x2="9.652" y2="18.041" width="0.254" layer="1"/>
<wire x1="11.254" y1="18.041" x2="11.342" y2="17.953" width="0.254" layer="1"/>
<wire x1="11.418" y1="14.651" x2="11.418" y2="16.607" width="0.254" layer="1"/>
<wire x1="11.418" y1="16.607" x2="11.342" y2="16.683" width="0.254" layer="1"/>
<wire x1="11.342" y1="16.683" x2="11.342" y2="14.651" width="0.254" layer="16"/>
<wire x1="7.79" y1="11.603" x2="6.35" y2="11.603" width="0.8128" layer="16"/>
<wire x1="6.35" y1="11.603" x2="6.35" y2="11.857" width="0.8128" layer="16"/>
<wire x1="15.914" y1="22.525" x2="16.256" y2="22.183" width="0.254" layer="1"/>
<wire x1="11.342" y1="14.651" x2="11.43" y2="14.563" width="0.254" layer="16"/>
<wire x1="11.43" y1="12.111" x2="11.43" y2="14.563" width="0.254" layer="16"/>
<via x="11.43" y="12.111" extent="1-16" drill="0.5" diameter="1.05" shape="octagon"/>
<wire x1="13.208" y1="19.643" x2="13.208" y2="18.461" width="0.254" layer="1"/>
<wire x1="13.208" y1="18.461" x2="12.788" y2="18.041" width="0.254" layer="1"/>
<wire x1="12.788" y1="18.041" x2="11.254" y2="18.041" width="0.254" layer="1"/>
<polygon width="0.254" layer="16">
<vertex x="0" y="24.411"/>
<vertex x="19.4" y="24.411"/>
<vertex x="19.4" y="0.3"/>
<vertex x="0" y="0.3"/>
</polygon>
<polygon width="0.254" layer="1">
<vertex x="0" y="24.411"/>
<vertex x="19.4" y="24.411"/>
<vertex x="19.4" y="0.3"/>
<vertex x="0" y="0.3"/>
</polygon>
<wire x1="6.032" y1="1.443" x2="6.032" y2="7.083" width="0.254" layer="16"/>
<wire x1="6.032" y1="7.148" x2="1.72" y2="7.148" width="0.254" layer="16"/>
<wire x1="6.032" y1="7.148" x2="6.032" y2="7.083" width="0.254" layer="16"/>
<wire x1="6.032" y1="7.083" x2="6.35" y2="7.401" width="0.254" layer="16"/>
<contactref element="C6" pad="2"/>
<wire x1="15.95" y1="16.5" x2="16.256" y2="16.806" width="0.254" layer="1"/>
<wire x1="16.256" y1="19.985" x2="16.256" y2="16.806" width="0.254" layer="1"/>
<wire x1="16.256" y1="19.985" x2="16.256" y2="22.183" width="0.254" layer="1"/>
<wire x1="15.9" y1="19.985" x2="16.256" y2="19.985" width="0.254" layer="1"/>
<via x="0.932" y="9.843" extent="1-16" drill="0.5" diameter="1.05" shape="octagon"/>
</signal>
<signal name="AGND">
<contactref element="Q3" pad="2"/>
<contactref element="BATT" pad="P$3"/>
<wire x1="9.89" y1="10.653" x2="9.89" y2="7.51" width="0.6096" layer="16"/>
<wire x1="9.89" y1="7.51" x2="10.8" y2="6.6" width="0.6096" layer="16"/>
<wire x1="10.8" y1="6.6" x2="17.073" y2="6.6" width="0.6096" layer="16"/>
<wire x1="17.073" y1="6.6" x2="17.116" y2="6.557" width="0.6096" layer="16"/>
</signal>
<signal name="MOTOR_B">
<contactref element="Q2" pad="3"/>
<contactref element="U$1" pad="4"/>
<wire x1="2.286" y1="18.037" x2="2.286" y2="18.715" width="0.8128" layer="16"/>
<wire x1="2.286" y1="18.715" x2="2.032" y2="18.969" width="0.8128" layer="16"/>
<wire x1="2.032" y1="18.969" x2="2.032" y2="21.113" width="0.8128" layer="16"/>
<wire x1="2.032" y1="21.113" x2="1.988" y2="21.157" width="0.8128" layer="16"/>
</signal>
<signal name="MOTOR_A">
<contactref element="Q1" pad="3"/>
<contactref element="U$1" pad="2"/>
<wire x1="6.988" y1="21.157" x2="6.988" y2="18.415" width="0.8128" layer="16"/>
<wire x1="6.988" y1="18.415" x2="7.366" y2="18.037" width="0.8128" layer="16"/>
</signal>
<signal name="MOTOR_A_GATE_R">
<contactref element="R2" pad="2"/>
<contactref element="Q1" pad="1"/>
<contactref element="R1" pad="1"/>
<via x="4.826" y="17.445" extent="1-16" drill="0.5" diameter="1.05" shape="octagon"/>
<wire x1="8.216" y1="15.837" x2="8.216" y2="14.397" width="0.4064" layer="16"/>
<wire x1="8.216" y1="15.837" x2="8.316" y2="15.937" width="0.4064" layer="16"/>
<wire x1="2.448" y1="13.723" x2="2.536" y2="13.635" width="0.254" layer="1"/>
<wire x1="2.536" y1="13.635" x2="5.08" y2="13.635" width="0.254" layer="1"/>
<wire x1="5.08" y1="13.635" x2="6.604" y2="15.159" width="0.254" layer="1"/>
<wire x1="6.604" y1="15.159" x2="6.604" y2="16.683" width="0.254" layer="1"/>
<wire x1="6.604" y1="16.683" x2="5.842" y2="17.445" width="0.254" layer="1"/>
<wire x1="5.842" y1="17.445" x2="4.826" y2="17.445" width="0.254" layer="1"/>
<wire x1="4.826" y1="17.445" x2="5.842" y2="17.445" width="0.254" layer="16"/>
<wire x1="5.842" y1="17.445" x2="6.35" y2="16.937" width="0.254" layer="16"/>
<wire x1="6.35" y1="16.937" x2="8.128" y2="16.937" width="0.254" layer="16"/>
<wire x1="8.128" y1="16.937" x2="8.382" y2="16.683" width="0.254" layer="16"/>
<wire x1="8.382" y1="16.683" x2="8.382" y2="16.003" width="0.254" layer="16"/>
<wire x1="8.382" y1="16.003" x2="8.216" y2="15.837" width="0.254" layer="16"/>
</signal>
<signal name="MOTOR_B_GATE_R">
<contactref element="R3" pad="2"/>
<contactref element="R4" pad="1"/>
<contactref element="Q2" pad="1"/>
<wire x1="3.136" y1="15.837" x2="3.136" y2="14.397" width="0.4064" layer="16"/>
<wire x1="3.136" y1="15.837" x2="3.236" y2="15.937" width="0.4064" layer="16"/>
<via x="4.826" y="15.413" extent="1-16" drill="0.5" diameter="1.05" shape="octagon"/>
<wire x1="3.136" y1="14.397" x2="3.81" y2="14.397" width="0.4064" layer="16"/>
<wire x1="3.81" y1="14.397" x2="4.826" y2="15.413" width="0.4064" layer="16"/>
<wire x1="3.223" y1="15.784" x2="4.455" y2="15.784" width="0.3048" layer="1"/>
<wire x1="4.455" y1="15.784" x2="4.826" y2="15.413" width="0.3048" layer="1"/>
</signal>
<signal name="MOTOR_B_PWM">
<contactref element="R4" pad="2"/>
<contactref element="U1" pad="P8"/>
<wire x1="1.649" y1="10.651" x2="1.2" y2="11.1" width="0.4064" layer="1"/>
<wire x1="1.2" y1="11.1" x2="1.2" y2="15.761" width="0.4064" layer="1"/>
<wire x1="1.2" y1="15.761" x2="1.523" y2="15.784" width="0.4064" layer="1"/>
<wire x1="4.318" y1="10.651" x2="1.649" y2="10.651" width="0.4064" layer="1"/>
</signal>
<signal name="MOTOR_A_PWM">
<contactref element="R2" pad="1"/>
<contactref element="U1" pad="P7"/>
<wire x1="2.82" y1="11.651" x2="4.318" y2="11.651" width="0.4064" layer="1"/>
<wire x1="2.82" y1="11.651" x2="2.448" y2="12.023" width="0.4064" layer="1"/>
</signal>
<signal name="SWDCLK">
<contactref element="U1" pad="P11"/>
<contactref element="SWD" pad="2"/>
<wire x1="1.72" y1="5.898" x2="3.439" y2="5.898" width="0.254" layer="1"/>
<wire x1="4.318" y1="6.777" x2="4.318" y2="7.651" width="0.254" layer="1"/>
<wire x1="3.439" y1="5.898" x2="4.318" y2="6.777" width="0.254" layer="1"/>
</signal>
<signal name="SWDIO">
<contactref element="U1" pad="P10"/>
<contactref element="SWD" pad="4"/>
<wire x1="4.318" y1="8.651" x2="3.144" y2="8.651" width="0.254" layer="1"/>
<wire x1="2.891" y1="8.398" x2="1.72" y2="8.398" width="0.254" layer="1"/>
<wire x1="3.144" y1="8.651" x2="2.891" y2="8.398" width="0.254" layer="1"/>
</signal>
<signal name="ANTISTUPID_GATE">
<contactref element="Q3" pad="1"/>
<contactref element="R5" pad="1"/>
<wire x1="10.834" y1="18.969" x2="10.16" y2="18.969" width="0.254" layer="16"/>
<wire x1="10.16" y1="18.969" x2="9.89" y2="18.699" width="0.254" layer="16"/>
<wire x1="9.89" y1="18.699" x2="9.89" y2="12.553" width="0.254" layer="16"/>
</signal>
<signal name="+6V">
<contactref element="R5" pad="2"/>
<contactref element="R6" pad="2"/>
<contactref element="U$1" pad="1"/>
<contactref element="U$1" pad="3"/>
<wire x1="9.488" y1="21.157" x2="9.488" y2="22.689" width="0.8128" layer="16"/>
<wire x1="9.488" y1="22.689" x2="8.89" y2="23.287" width="0.8128" layer="16"/>
<wire x1="8.89" y1="23.287" x2="4.826" y2="23.287" width="0.8128" layer="16"/>
<wire x1="4.826" y1="23.287" x2="4.572" y2="23.033" width="0.8128" layer="16"/>
<wire x1="4.572" y1="23.033" x2="4.572" y2="21.241" width="0.8128" layer="16"/>
<wire x1="4.572" y1="21.241" x2="4.488" y2="21.157" width="0.8128" layer="16"/>
<wire x1="12.446" y1="20.747" x2="14.662" y2="20.747" width="0.8128" layer="16"/>
<wire x1="12.446" y1="20.747" x2="9.898" y2="20.747" width="0.8128" layer="16"/>
<wire x1="9.898" y1="20.747" x2="9.488" y2="21.157" width="0.8128" layer="16"/>
<contactref element="BATT" pad="P$1"/>
<wire x1="9.488" y1="19.567" x2="9.488" y2="21.157" width="0.254" layer="1"/>
<wire x1="17.116" y1="11.557" x2="17.018" y2="15.855" width="0.8128" layer="16"/>
<wire x1="17.018" y1="15.855" x2="17.018" y2="18.391" width="0.8128" layer="16"/>
<wire x1="17.018" y1="18.391" x2="14.662" y2="20.747" width="0.8128" layer="16"/>
<contactref element="U2" pad="1"/>
<contactref element="C4" pad="1"/>
<wire x1="13.6262" y1="20.9248" x2="14.9606" y2="20.9248" width="0.254" layer="1"/>
<wire x1="13.208" y1="21.343" x2="13.6262" y2="20.9248" width="0.254" layer="1"/>
<wire x1="9.488" y1="19.567" x2="9.144" y2="19.223" width="0.254" layer="1"/>
<wire x1="9.144" y1="19.223" x2="7.874" y2="19.223" width="0.254" layer="1"/>
<wire x1="7.874" y1="19.223" x2="7.62" y2="18.969" width="0.254" layer="1"/>
<wire x1="7.62" y1="18.969" x2="7.62" y2="18.041" width="0.254" layer="1"/>
<wire x1="14.9606" y1="20.9248" x2="14.732" y2="21.1534" width="0.254" layer="1"/>
<wire x1="12.534" y1="18.969" x2="12.446" y2="19.057" width="0.254" layer="16"/>
<wire x1="12.446" y1="19.057" x2="12.446" y2="20.747" width="0.254" layer="16"/>
<wire x1="9.488" y1="21.157" x2="9.674" y2="21.343" width="0.254" layer="1"/>
<wire x1="9.674" y1="21.343" x2="13.208" y2="21.343" width="0.254" layer="1"/>
<contactref element="U2" pad="3"/>
<via x="14.7" y="17.7" extent="1-16" drill="0.5" diameter="1.05" shape="octagon"/>
<wire x1="17.0214" y1="15.6624" x2="17.116" y2="11.557" width="0.254" layer="16"/>
<wire x1="14.9606" y1="17.9606" x2="14.7" y2="17.7" width="0.254" layer="1"/>
<wire x1="14.9606" y1="19.0452" x2="14.9606" y2="17.9606" width="0.254" layer="1"/>
<wire x1="14.7" y1="17.7" x2="12.9" y2="17.7" width="0.254" layer="16"/>
<wire x1="12.9" y1="17.7" x2="12.534" y2="18.066" width="0.254" layer="16"/>
<wire x1="12.534" y1="18.066" x2="12.534" y2="18.969" width="0.254" layer="16"/>
</signal>
<signal name="VBAT_ADC">
<contactref element="R6" pad="1"/>
<contactref element="R7" pad="2"/>
<contactref element="U1" pad="P6"/>
<wire x1="7.418" y1="14.651" x2="7.418" y2="15.973" width="0.254" layer="1"/>
<wire x1="7.786" y1="16.341" x2="7.418" y2="15.973" width="0.254" layer="1"/>
<wire x1="7.786" y1="16.341" x2="7.62" y2="16.341" width="0.254" layer="1"/>
<wire x1="9.652" y1="16.341" x2="7.786" y2="16.341" width="0.254" layer="1"/>
</signal>
<signal name="N$1">
<contactref element="U2" pad="4"/>
<contactref element="C6" pad="1"/>
<wire x1="17.65" y1="16.5" x2="17.5514" y2="16.5986" width="0.254" layer="1"/>
<wire x1="17.5514" y1="16.5986" x2="17.5514" y2="19.0452" width="0.254" layer="1"/>
</signal>
</signals>
</board>
</drawing>
</eagle>
